0,0,9,1,_,1,8,6,_,A,2,4,1,_
0,1,0,7,_,2,6,0,_,A,2,6,6,_
0,5,1,2,_,1,1,1,_,C,2,3,4,_
0,5,2,5,_,4,6,4,_,C,3,1,4,_
0,3,0,8,_,3,9,9,_,B,3,1,1,_
0,7,4,8,_,5,6,9,_,D,2,0,1,_
0,4,4,3,_,1,0,6,_,B,8,2,8,_
0,0,6,7,_,1,4,6,_,A,2,1,3,B,_
0,2,8,2,_,5,5,4,_,B,2,2,9,_
0,3,3,2,_,2,0,8,_,B,3,2,8,A,_
0,1,6,0,_,2,9,5,_,A,5,6,6,_
0,9,2,2,_,2,6,0,_,J,1,4,0,Z,_
0,3,7,3,_,2,1,3,_,B,4,3,8,B,_
0,4,1,3,_,2,9,4,_,B,7,4,0,A,_
0,4,5,4,_,3,9,7,_,B,8,3,3,_
0,9,3,5,_,5,7,7,_,J,1,7,1,_
0,2,5,1,_,5,5,5,_,B,1,2,0,_
0,3,5,5,_,1,7,2,_,B,4,1,1,_
0,9,1,5,_,3,2,2,_,J,1,2,2,C,_
0,0,1,6,_,4,0,5,_,A,1,1,3,_
0,6,2,4,_,1,0,2,_,C,5,3,7,A,_
0,2,4,9,_,3,7,0,_,B,1,1,7,_
0,0,5,5,_,1,0,5,_,A,1,6,6,_
0,4,7,1,_,2,5,8,_,C,1,2,9,B,_
0,9,4,5,_,5,2,9,_,J,3,1,0,A,_
1,0,2,0,_,4,2,6,_,J,5,5,9,A,_
0,3,3,5,_,3,8,2,_,B,3,3,0,_
0,6,6,3,_,2,6,0,_,C,7,1,1,A,_
0,1,3,3,_,1,0,2,_,A,3,6,0,B,_
0,7,1,8,_,2,5,6,_,C,8,1,7,_
0,5,2,0,_,4,8,4,_,C,3,1,1,_
0,5,5,2,_,2,6,7,_,C,3,5,7,_
0,2,6,6,_,3,8,5,_,B,1,3,7,_
0,2,4,5,_,4,9,2,_,B,1,1,3,_
0,9,4,7,_,4,4,5,_,J,3,1,3,_
0,6,5,7,_,1,8,8,_,C,6,5,8,A,_
0,9,7,3,_,1,6,7,_,J,4,1,9,A,_
0,7,2,0,_,1,3,9,_,C,8,1,9,_
0,8,9,3,_,3,5,8,_,D,7,5,4,_
0,2,4,2,_,3,7,7,_,B,1,1,0,A,_
0,1,9,7,_,2,6,1,_,A,7,1,9,A,_
0,5,2,6,_,1,4,1,_,C,3,1,5,_
0,6,3,4,_,3,0,9,_,C,5,4,9,_
0,0,0,3,_,2,5,8,_,A,1,0,1,B,_
0,3,5,3,_,4,5,7,_,B,4,0,8,_
0,9,1,1,_,2,4,7,_,J,1,2,1,_
0,0,3,5,_,3,1,8,_,A,1,3,0,A,_
0,4,0,8,_,1,1,8,_,B,7,2,3,_
0,5,4,9,_,2,5,3,_,C,3,4,2,_
0,0,6,5,_,1,6,0,_,A,2,1,3,_
0,7,9,5,_,3,7,8,_,D,4,9,0,_
0,1,2,4,_,4,4,1,_,A,3,1,9,_
0,1,8,6,_,5,7,4,_,A,7,1,0,_
0,9,4,9,_,2,4,5,_,J,3,2,3,_
0,9,7,2,_,3,6,5,_,J,4,1,8,_
0,2,3,6,_,2,7,4,_,B,1,0,2,A,_
0,3,9,5,_,3,0,3,_,B,6,3,2,_
0,4,1,4,_,3,0,9,_,B,7,5,6,_
0,4,3,9,_,5,6,7,_,B,8,2,5,_
0,6,2,9,_,1,7,7,_,C,5,4,2,Z,_
0,3,8,8,_,5,6,7,_,B,6,2,2,_
0,5,4,2,_,1,2,8,_,C,3,3,7,_
0,9,2,7,_,4,9,6,_,J,1,5,6,_
0,5,9,4,_,1,1,6,_,C,4,5,3,A,_
0,0,4,8,_,1,2,5,_,A,1,4,8,_
0,7,2,2,_,1,5,7,_,C,8,2,1,A,_
0,0,5,9,_,1,9,5,_,A,1,7,1,_
0,2,3,9,_,3,0,7,_,B,1,0,7,A,_
0,0,7,0,_,5,6,7,_,A,2,1,6,_
0,6,3,6,_,4,5,1,_,C,6,0,4,_
0,3,9,2,_,1,7,7,_,B,6,2,9,A,_
0,1,3,8,_,5,6,4,_,A,3,6,5,_
0,8,0,6,_,2,5,1,_,D,5,0,7,A,_
0,2,2,4,_,3,8,5,_,A,8,6,2,_
0,3,9,8,_,2,6,0,_,B,6,3,5,A,_
0,5,0,1,_,1,7,7,_,C,2,1,4,_
1,0,2,1,_,4,1,0,_,J,5,6,0,_
0,0,1,3,_,2,4,2,_,A,1,1,1,_
0,7,8,6,_,2,1,5,_,D,4,3,7,A,_
0,8,0,8,_,5,6,4,_,D,5,0,8,_
0,8,2,2,_,2,1,5,_,D,5,2,8,A,_
1,0,2,4,_,1,8,9,_,J,5,6,9,_
0,9,9,2,_,2,2,5,_,J,4,4,1,A,_
0,0,3,0,_,1,2,9,_,A,1,2,7,B,_
0,6,2,1,_,3,7,7,_,C,5,3,5,A,_
0,0,4,1,_,5,4,7,_,A,1,4,1,_
0,9,2,6,_,3,4,3,_,J,1,5,0,A,_
0,5,4,3,_,2,7,5,_,C,3,3,7,A,_
0,0,3,2,_,2,4,7,_,A,1,2,7,D,_
0,8,0,1,_,5,7,5,_,D,5,0,3,_
0,8,1,5,_,5,6,6,_,D,5,2,1,_
1,0,2,6,_,1,9,4,_,X,0,0,2,_
0,4,0,5,_,3,1,1,_,B,7,1,7,_
0,0,7,3,_,1,8,1,_,A,2,2,2,_
0,9,2,3,_,5,9,7,_,J,1,4,6,_
0,5,6,2,_,4,3,4,_,C,4,1,1,_
0,2,6,8,_,2,6,3,_,B,2,0,4,_
0,4,6,2,_,2,6,1,_,C,1,0,3,A,_
0,2,2,0,_,5,5,0,_,A,8,5,5,_
0,5,2,4,_,3,5,1,_,C,3,1,3,A,_
0,9,6,8,_,4,0,3,_,J,4,1,5,_
0,2,7,3,_,2,5,9,_,B,2,1,9,_
0,9,3,3,_,2,6,6,_,J,1,6,9,_
0,9,0,6,_,5,8,5,_,J,1,1,6,_
0,9,4,6,_,4,1,5,_,J,3,1,2,A,_
0,9,6,6,_,4,0,9,_,J,4,1,0,_
0,5,7,3,_,5,6,7,_,C,4,2,1,_
0,8,2,7,_,3,8,0,_,D,5,3,4,_
0,4,6,0,_,3,7,1,_,C,1,0,1,_
0,0,5,8,_,5,7,8,_,A,1,7,0,_
0,0,5,7,_,4,1,2,_,A,1,6,9,_
0,8,9,8,_,1,3,2,_,D,8,1,4,_
0,7,6,0,_,2,9,2,_,D,3,0,9,A,_
0,8,6,3,_,5,5,4,_,D,6,1,4,_
0,6,9,8,_,3,0,5,_,C,8,0,6,_
0,6,9,4,_,2,1,1,_,C,7,6,9,A,_
0,2,9,5,_,1,1,6,_,B,2,4,0,_
0,1,9,5,_,3,8,3,_,A,7,1,8,_
0,3,9,0,_,3,5,2,_,B,6,2,8,_
0,5,9,2,_,3,7,4,_,C,4,5,2,_
0,0,6,3,_,3,8,9,_,A,2,1,1,_
0,0,6,6,_,2,5,6,_,A,2,1,3,A,_
0,1,4,5,_,2,6,2,_,A,4,0,1,A,_
0,0,1,8,_,2,9,9,_,A,1,1,5,_
0,9,2,9,_,3,4,0,_,J,1,5,7,_
0,9,1,3,_,1,4,6,_,J,1,2,2,A,_
0,5,7,7,_,4,9,4,_,C,4,2,6,_
1,0,0,6,_,4,0,1,_,J,5,2,3,_
0,6,9,3,_,2,3,0,_,C,7,6,8,A,_
0,1,6,6,_,4,1,7,_,A,6,6,1,_
0,1,6,1,_,2,6,7,_,A,5,7,0,_
0,9,9,0,_,1,4,1,_,J,4,4,0,_
0,4,8,9,_,1,5,3,_,C,1,4,1,A,_
0,7,4,5,_,5,7,4,_,D,1,1,6,_
0,4,5,3,_,2,0,8,_,B,8,3,1,B,_
0,3,5,8,_,2,6,5,_,B,4,1,2,A,_
0,4,6,7,_,2,7,7,_,C,1,2,6,_
0,4,4,6,_,1,5,9,_,B,8,2,9,_
0,9,6,1,_,5,7,9,_,J,3,3,9,_
0,1,3,9,_,3,8,0,_,A,3,6,6,_
0,8,0,3,_,4,3,7,_,D,5,0,4,A,_
0,9,7,8,_,1,8,9,_,J,4,2,8,_
0,1,8,3,_,1,9,4,_,A,7,0,8,_
0,4,2,6,_,1,1,3,_,B,7,7,1,B,_
0,1,5,1,_,1,3,7,_,A,4,0,9,A,_
0,5,4,4,_,1,5,8,_,C,3,3,7,B,_
0,8,2,8,_,3,9,3,_,D,5,4,2,_
0,7,8,4,_,3,8,5,_,D,4,2,9,_
0,0,0,6,_,3,8,5,_,A,1,0,5,_
0,9,1,7,_,4,4,0,_,J,1,3,2,_
1,0,1,4,_,2,2,8,_,J,5,4,6,_
0,9,5,4,_,2,9,9,_,J,3,3,0,A,_
0,4,8,6,_,3,3,3,_,C,1,4,0,A,_
0,7,1,2,_,2,0,0,_,C,8,1,3,_
0,0,1,4,_,1,5,1,_,A,1,1,1,A,_
0,4,5,7,_,1,6,5,_,B,8,3,6,A,_
0,4,7,8,_,4,3,8,_,C,1,3,5,_
0,9,6,5,_,4,0,1,_,J,3,4,9,_
0,0,8,7,_,1,0,2,_,A,2,3,9,_
0,9,8,3,_,2,2,2,_,J,4,3,3,C,_
0,6,4,1,_,2,6,0,_,C,6,0,7,_
0,5,9,5,_,2,2,2,_,C,4,5,4,_
0,3,8,5,_,3,2,8,_,B,6,2,0,A,_
0,6,3,2,_,3,6,4,_,C,5,4,5,_
0,6,8,3,_,2,3,0,_,C,7,4,4,_
0,2,4,6,_,3,6,3,_,B,1,1,5,_
0,8,9,2,_,2,8,5,_,D,7,5,3,_
0,0,9,6,_,5,4,9,_,A,2,5,7,_
0,0,7,4,_,3,9,2,_,A,2,2,3,_
0,1,5,3,_,1,3,7,_,A,5,4,3,_
0,8,8,3,_,3,7,4,_,D,7,1,5,_
0,5,9,7,_,3,1,3,_,C,4,5,9,_
0,9,9,7,_,3,7,8,_,J,4,6,4,A,_
0,6,5,4,_,1,9,7,_,C,6,5,0,_
0,0,8,6,_,2,2,2,_,A,2,3,8,B,_
0,6,7,1,_,4,4,3,_,C,7,2,0,_
0,6,2,3,_,5,5,5,_,C,5,3,6,_
0,4,3,6,_,2,6,9,_,B,8,1,7,_
0,4,8,2,_,1,5,4,_,C,1,3,7,A,_
0,7,4,2,_,1,2,9,_,D,1,1,1,B,_
1,0,1,8,_,1,6,6,_,J,5,5,1,A,_
0,3,1,0,_,1,3,8,_,B,3,1,3,A,_
0,3,7,9,_,1,9,3,_,B,6,0,6,_
0,5,3,0,_,1,4,1,_,C,3,2,4,A,_
0,9,7,5,_,1,8,7,_,J,4,2,3,_
0,9,4,0,_,1,6,5,_,J,1,7,7,_
0,0,4,4,_,1,9,3,_,A,1,4,3,_
0,2,2,7,_,1,6,3,_,A,8,6,6,B,_
0,2,6,3,_,2,3,3,_,B,1,3,0,B,_
0,7,4,3,_,2,1,7,_,D,1,1,3,B,_
0,0,7,2,_,5,1,8,_,A,2,1,9,A,_
1,0,1,2,_,4,8,5,_,J,5,4,4,_
0,2,5,5,_,2,8,9,_,B,1,2,3,B,_
0,4,9,8,_,4,8,6,_,C,2,1,0,_
0,0,2,7,_,1,6,0,_,A,1,2,6,_
0,7,3,1,_,1,0,7,_,C,8,4,2,B,_
0,1,7,5,_,5,7,3,_,A,6,6,8,_
0,7,5,3,_,1,5,3,_,D,2,1,4,B,_
0,5,2,7,_,3,2,1,_,C,3,1,5,A,_
0,3,9,1,_,1,0,6,_,B,6,2,9,_
0,7,3,4,_,2,5,8,_,C,8,4,5,A,_
0,7,5,1,_,5,6,5,_,D,2,1,3,_
0,2,3,8,_,2,5,2,_,B,1,0,7,_
0,8,1,4,_,5,1,4,_,D,5,2,0,_
0,2,1,1,_,1,7,7,_,A,8,2,1,A,_
0,9,5,2,_,5,9,1,_,J,3,2,8,_
0,2,9,4,_,2,6,4,_,B,2,3,9,_
0,6,3,9,_,3,5,0,_,C,6,0,6,_
0,1,4,0,_,1,7,4,_,A,3,6,9,A,_
0,3,3,8,_,1,3,2,_,B,3,3,4,_
0,5,3,4,_,5,4,1,_,C,3,2,7,_
0,0,1,1,_,1,3,4,_,A,1,1,0,_
0,6,9,5,_,3,3,8,_,C,8,0,1,A,_
0,1,7,8,_,2,6,0,_,A,6,7,3,_
0,5,5,7,_,5,1,3,_,C,4,0,8,_
0,8,2,9,_,3,9,1,_,D,5,4,3,_
0,2,9,3,_,2,3,0,_,B,2,3,7,_
0,0,4,5,_,3,7,1,_,A,1,4,4,_
0,0,5,1,_,2,0,7,_,A,1,4,9,_
0,2,5,8,_,2,7,3,_,B,1,2,6,A,_
0,6,8,5,_,1,6,4,_,C,7,6,0,_
0,7,2,8,_,3,0,2,_,C,8,3,9,A,_
0,0,6,0,_,3,8,1,_,A,1,7,1,A,_
0,8,1,8,_,2,4,5,_,D,5,2,3,A,_
0,9,6,7,_,5,9,6,_,J,4,1,1,_
0,8,6,8,_,5,7,4,_,D,6,1,8,_
0,1,1,7,_,1,6,9,_,A,3,0,7,A,_
0,2,2,2,_,4,1,1,_,A,8,6,0,_
0,0,0,1,_,2,8,6,_,A,1,0,1,_
0,1,3,4,_,3,2,1,_,A,3,6,2,_
0,3,4,1,_,3,7,4,_,B,3,3,6,_
0,6,5,9,_,2,7,0,_,C,6,5,9,_
0,5,4,0,_,2,3,8,_,C,3,3,5,_
0,7,9,3,_,3,6,1,_,D,4,5,1,_
0,6,4,3,_,5,5,8,_,C,6,1,1,_
0,8,0,2,_,1,3,6,_,D,5,0,4,_
0,2,8,8,_,1,5,7,_,B,2,3,2,A,_
0,2,7,7,_,4,9,4,_,B,2,2,6,_
0,3,9,3,_,2,6,9,_,B,6,2,9,B,_
0,3,7,6,_,3,0,8,_,B,5,2,0,_
0,7,1,7,_,1,8,6,_,C,8,1,4,B,_
0,6,9,9,_,2,5,7,_,C,8,0,6,A,_
1,0,0,0,_,5,6,2,_,J,4,6,9,_
0,0,7,6,_,1,6,3,_,A,2,2,6,A,_
0,1,4,1,_,4,1,9,_,A,3,7,0,_
0,1,7,4,_,4,1,4,_,A,6,6,7,_
0,4,7,2,_,2,6,8,_,C,1,3,2,_
0,0,9,0,_,3,7,1,_,A,2,4,0,A,_
0,1,3,5,_,2,4,7,_,A,3,6,2,Z,_
1,0,2,5,_,1,9,5,_,X,0,0,1,_
0,9,9,1,_,4,3,1,_,J,4,4,0,A,_
0,2,8,6,_,2,0,9,_,B,2,3,1,A,_
0,7,7,2,_,1,5,3,_,D,4,1,6,A,_
0,0,9,4,_,5,2,5,_,A,2,4,2,_
0,9,6,9,_,1,3,9,_,J,4,1,6,_
0,2,5,6,_,5,0,1,_,B,1,2,5,_
0,3,7,4,_,5,4,9,_,B,5,0,1,_
0,6,1,8,_,2,3,8,_,C,5,3,4,B,_
0,5,3,9,_,4,4,3,_,C,3,3,2,_
0,4,6,8,_,2,9,1,_,C,1,2,6,Z,_
0,2,9,6,_,4,1,2,_,B,3,0,1,_
0,2,9,0,_,5,7,6,_,B,2,3,3,_
0,2,8,1,_,5,7,4,_,B,2,2,8,_
0,0,3,8,_,1,3,7,_,A,1,3,9,A,_
0,5,5,9,_,1,4,5,_,C,4,0,9,A,_
0,6,0,7,_,2,2,9,_,C,5,1,9,A,_
0,0,7,5,_,3,9,3,_,A,2,2,5,_
1,0,0,4,_,4,0,9,_,J,5,1,6,_
0,5,1,8,_,2,4,6,_,C,3,0,3,_
0,3,7,8,_,1,2,7,_,B,6,0,3,_
0,2,5,2,_,3,5,0,_,B,1,2,1,_
0,7,9,0,_,4,0,1,_,D,4,4,5,_
0,9,2,0,_,4,8,7,_,J,1,3,7,_
0,6,7,4,_,3,1,4,_,C,7,3,5,A,_
0,6,2,0,_,1,5,2,_,C,5,3,5,_
0,2,0,8,_,1,1,7,_,A,8,1,3,_
0,2,8,5,_,1,6,2,_,B,2,3,1,_
0,2,0,7,_,3,5,6,_,A,7,7,1,_
0,5,4,1,_,5,4,8,_,C,3,3,6,_
0,9,6,2,_,2,9,8,_,J,3,4,6,A,_
0,1,7,6,_,2,5,8,_,A,6,7,1,_
0,0,2,5,_,2,1,8,_,A,1,2,3,B,_
0,7,6,7,_,2,1,7,_,D,4,1,3,B,_
0,3,6,1,_,4,9,0,_,B,4,1,4,_
0,1,4,4,_,1,4,0,_,A,4,0,1,_
0,5,7,1,_,2,8,0,_,C,4,1,9,B,_
0,7,1,1,_,2,6,1,_,C,8,1,2,B,_
0,0,1,9,_,3,7,4,_,A,1,1,8,_
0,0,0,4,_,5,4,5,_,A,1,0,3,_
0,7,0,3,_,3,7,1,_,C,8,0,9,A,_
0,0,3,9,_,1,3,8,_,A,1,3,9,B,_
0,2,7,2,_,2,7,8,_,B,2,1,8,_
0,4,5,1,_,1,0,3,_,B,8,3,1,_
0,7,1,9,_,5,4,8,_,C,8,1,8,_
0,4,6,1,_,1,1,2,_,C,1,0,3,_
0,6,8,7,_,2,5,5,_,C,7,6,2,_
0,9,1,6,_,5,8,1,_,J,1,2,4,_
1,0,0,5,_,5,8,1,_,J,5,1,9,_
0,5,6,7,_,3,9,2,_,C,4,1,4,_
0,2,0,3,_,3,9,4,_,A,7,6,3,_
0,5,6,6,_,4,3,5,_,C,4,1,3,A,_
0,3,8,3,_,1,1,5,_,B,6,1,0,B,_
0,6,3,3,_,3,6,4,_,C,5,4,6,_
0,5,5,8,_,1,4,2,_,C,4,0,9,_
0,5,0,0,_,4,9,3,_,C,2,1,2,_
0,1,2,6,_,1,5,1,_,A,3,5,1,_
0,5,1,3,_,2,5,4,_,C,2,3,5,_
0,9,3,0,_,4,1,4,_,J,1,5,8,_
0,3,7,7,_,1,2,2,_,B,5,2,1,_
0,4,2,3,_,1,7,8,_,B,7,6,9,_
0,8,1,2,_,3,7,2,_,D,5,1,8,_
0,9,8,8,_,2,1,3,_,J,4,3,8,A,_
0,1,7,3,_,1,8,5,_,A,6,6,6,B,_
0,8,0,4,_,1,4,3,_,D,5,0,5,_
0,5,2,1,_,2,0,0,_,C,3,1,2,_
0,4,5,8,_,5,4,3,_,B,8,3,9,_
0,4,9,7,_,3,6,4,_,C,2,0,8,A,_
0,0,1,7,_,3,0,0,_,A,1,1,4,_
0,9,4,8,_,2,2,9,_,J,3,1,5,_
0,0,0,8,_,5,4,3,_,A,1,0,7,_
0,8,0,5,_,1,7,0,_,D,5,0,7,_
0,7,3,9,_,3,5,3,_,D,1,0,5,_
0,2,6,9,_,1,2,8,_,B,2,1,0,_
0,0,7,1,_,5,7,8,_,A,2,1,8,_
0,1,8,5,_,1,4,4,_,A,7,0,8,B,_
0,3,6,2,_,3,6,1,_,B,4,2,6,_
0,9,9,5,_,4,2,2,_,J,4,4,3,_
0,1,2,0,_,5,5,3,_,A,3,1,1,_
0,7,2,6,_,4,5,9,_,C,8,3,7,_
0,7,1,3,_,1,4,7,_,C,8,1,3,A,_
0,9,5,7,_,5,4,3,_,J,3,3,2,A,_
0,1,9,8,_,4,2,2,_,A,7,2,1,A,_
0,2,5,7,_,2,7,0,_,B,1,2,6,_
0,3,9,6,_,3,1,8,_,B,6,3,4,_
0,1,9,6,_,1,3,8,_,A,7,1,9,_
0,2,1,7,_,4,7,8,_,A,8,4,8,_
0,1,2,7,_,4,0,7,_,A,3,5,1,A,_
0,5,3,1,_,3,1,3,_,C,3,2,4,B,_
0,1,5,2,_,2,8,6,_,A,4,1,2,B,_
0,6,3,5,_,5,4,5,_,C,6,0,1,_
0,7,0,8,_,5,1,4,_,C,8,1,1,_
0,1,7,2,_,3,3,6,_,A,6,6,6,A,_
0,4,9,5,_,4,3,1,_,C,2,0,5,A,_
0,9,7,1,_,2,0,1,_,J,4,1,6,Z,_
0,4,9,0,_,3,6,5,_,C,1,4,3,_
0,6,0,4,_,2,5,3,_,C,5,1,6,_
0,1,4,3,_,5,7,2,_,A,3,7,1,_
0,0,5,4,_,3,1,1,_,A,1,5,2,_
0,8,8,5,_,3,7,2,_,D,7,2,3,_
0,6,3,7,_,1,5,0,_,C,6,0,5,_
0,8,1,0,_,2,3,8,_,D,5,1,7,_
0,5,8,7,_,2,4,7,_,C,4,4,4,_
0,5,8,6,_,2,7,6,_,C,4,4,3,A,_
0,6,0,2,_,5,3,9,_,C,5,1,5,_
0,2,3,3,_,1,6,6,_,A,8,7,4,B,_
0,2,1,5,_,3,1,8,_,A,8,3,4,A,_
0,9,5,1,_,3,6,7,_,J,3,2,6,A,_
0,2,4,4,_,5,0,7,_,B,1,1,2,_
0,3,1,6,_,3,6,1,_,B,3,1,7,_
0,3,7,0,_,2,0,8,_,B,4,3,5,A,_
0,7,8,8,_,3,8,9,_,D,4,4,2,_
0,6,0,8,_,2,4,6,_,C,5,2,0,_
0,9,7,4,_,1,0,4,_,J,4,2,1,A,_
0,1,8,9,_,1,4,9,_,A,7,1,3,_
0,5,3,8,_,5,5,0,_,C,3,3,1,_
0,6,1,9,_,1,8,6,_,C,5,3,4,C,_
0,1,6,7,_,1,2,5,_,A,6,6,2,_
0,7,5,4,_,2,0,9,_,D,2,1,6,A,_
0,7,6,4,_,2,8,7,_,D,4,1,2,_
0,8,6,2,_,5,1,6,_,D,6,1,0,A,_
1,0,2,7,_,1,4,3,_,X,0,0,3,_
0,4,6,3,_,3,4,7,_,C,1,0,9,_
0,1,8,0,_,4,2,6,_,A,7,0,5,_
0,4,6,4,_,1,9,5,_,C,1,1,3,A,_
0,3,6,6,_,1,9,2,_,B,4,3,3,_
0,7,9,1,_,2,7,1,_,D,4,4,7,_
0,9,8,2,_,1,9,5,_,J,4,3,3,B,_
0,7,4,0,_,2,1,8,_,D,1,0,5,A,_
0,7,2,1,_,3,6,1,_,C,8,1,9,A,_
0,4,1,1,_,1,1,6,_,B,7,3,5,_
0,5,3,6,_,1,1,5,_,C,3,2,9,B,_
0,6,7,7,_,1,4,6,_,C,7,3,9,_
0,3,6,4,_,4,5,6,_,B,4,3,1,_
0,1,5,9,_,1,3,7,_,A,5,6,2,_
0,4,0,3,_,3,5,3,_,B,7,0,1,A,_
0,8,4,5,_,4,8,1,_,D,5,8,9,_
0,7,3,2,_,1,1,6,_,C,8,4,3,_
0,3,3,6,_,3,4,8,_,B,3,3,2,_
0,5,1,7,_,2,3,2,_,C,3,0,2,_
0,8,9,6,_,3,6,3,_,D,8,0,3,_
0,6,6,5,_,2,2,7,_,C,7,1,3,A,_
1,0,1,0,_,3,3,3,_,J,5,4,2,_
1,0,1,9,_,1,6,6,_,J,5,5,9,_
0,5,2,3,_,2,6,9,_,C,3,1,2,B,_
0,1,5,0,_,1,3,2,_,A,4,0,9,_
0,9,4,4,_,4,1,9,_,J,1,8,9,_
0,4,2,9,_,3,1,4,_,B,7,7,5,A,_
0,9,3,6,_,4,4,7,_,J,1,7,4,_
0,3,5,0,_,5,0,5,_,B,4,0,3,_
0,8,8,9,_,1,2,5,_,D,7,3,1,_
0,8,2,1,_,3,9,6,_,D,5,2,6,_
0,2,8,9,_,2,6,5,_,B,2,3,2,B,_
0,1,4,2,_,1,4,8,_,A,3,7,0,A,_
0,9,9,8,_,5,8,1,_,J,4,6,5,_
0,3,4,4,_,2,6,8,_,B,3,3,9,A,_
0,3,3,9,_,2,1,4,_,B,3,3,4,Z,_
0,6,0,0,_,3,1,6,_,C,5,1,4,B,_
0,6,4,5,_,5,5,9,_,C,6,1,4,A,_
0,1,0,0,_,5,5,9,_,A,2,6,1,_
0,2,7,1,_,3,9,3,_,B,2,1,4,_
0,0,5,3,_,4,0,5,_,A,1,5,1,_
1,0,0,9,_,5,2,3,_,J,5,4,1,A,_
0,5,3,2,_,5,1,4,_,C,3,2,6,_
0,4,0,0,_,3,1,1,_,B,6,3,6,A,_
1,0,1,5,_,3,6,9,_,J,5,4,6,A,_
0,9,0,8,_,4,4,6,_,J,1,1,8,Z,_
0,0,6,1,_,5,4,3,_,A,2,0,2,_
0,7,5,0,_,4,7,9,_,D,2,0,7,_
0,6,4,6,_,5,3,6,_,C,6,1,7,_
0,4,7,3,_,2,7,2,_,C,1,3,2,A,_
0,7,3,0,_,1,9,6,_,C,8,4,2,A,_
0,1,5,5,_,2,5,9,_,A,5,5,3,_
0,4,8,0,_,2,9,7,_,C,1,3,6,A,_
0,5,0,5,_,2,9,8,_,C,2,1,9,A,_
0,6,1,1,_,2,9,8,_,C,5,2,5,A,_
0,1,4,7,_,1,6,6,_,A,4,0,1,Z,_
0,0,2,6,_,5,5,3,_,A,1,2,4,_
1,0,1,7,_,2,4,6,_,J,5,5,1,_
0,7,9,2,_,2,5,3,_,D,4,4,8,_
0,6,2,5,_,5,2,2,_,C,5,3,8,_
0,5,6,0,_,2,2,6,_,C,4,0,9,B,_
0,4,9,2,_,5,4,9,_,C,2,0,2,_
0,0,2,9,_,1,0,7,_,A,1,2,7,A,_
0,9,7,6,_,3,4,4,_,J,4,2,7,_
0,9,8,7,_,2,8,8,_,J,4,3,7,_
0,5,1,1,_,4,4,1,_,C,2,3,3,_
0,1,2,3,_,3,2,2,_,A,3,1,4,_
0,5,4,7,_,1,4,6,_,C,3,4,0,A,_
0,1,3,1,_,1,9,3,_,A,3,6,0,_
0,1,8,4,_,2,4,0,_,A,7,0,8,A,_
0,4,9,9,_,4,6,9,_,C,2,1,1,_
0,2,4,8,_,1,6,5,_,B,1,1,6,C,_
0,5,7,9,_,4,9,1,_,C,4,2,7,_
0,9,9,6,_,1,0,9,_,J,4,4,4,_
0,8,6,1,_,3,7,7,_,D,6,0,7,_
0,9,3,1,_,1,1,0,_,J,1,5,9,Z,_
0,2,7,9,_,1,3,4,_,B,2,2,7,_
0,4,8,3,_,2,4,9,_,C,1,3,8,_
0,6,5,1,_,2,5,4,_,C,6,4,2,_
0,1,4,8,_,3,2,6,_,A,4,0,4,_
0,9,3,4,_,5,9,5,_,J,1,7,0,_
0,9,8,0,_,4,2,5,_,J,4,3,1,_
0,7,9,7,_,1,9,8,_,D,4,9,2,_
0,3,5,2,_,5,6,0,_,B,4,0,7,_
0,2,2,6,_,3,6,6,_,A,8,6,4,_
0,0,8,9,_,1,8,4,_,A,2,4,0,_
0,7,2,3,_,3,0,7,_,C,8,2,2,_
0,0,5,2,_,5,6,0,_,A,1,5,0,_
0,2,0,9,_,2,5,8,_,A,8,1,3,A,_
0,6,7,3,_,2,8,3,_,C,7,3,1,A,_
0,6,7,5,_,5,5,0,_,C,7,3,6,_
0,5,0,6,_,3,8,3,_,C,2,2,2,_
1,0,1,3,_,1,0,4,_,J,5,4,4,A,_
0,5,0,2,_,4,3,2,_,C,2,1,6,_
1,0,0,8,_,2,8,9,_,J,5,2,9,_
0,0,0,9,_,3,0,6,_,A,1,0,8,A,_
0,9,8,5,_,2,6,5,_,J,4,3,5,_
0,6,5,0,_,3,7,0,_,C,6,4,1,_
0,9,1,0,_,1,9,0,_,J,1,2,0,Z,_
0,9,4,1,_,4,1,9,_,J,1,7,7,A,_
0,4,6,9,_,2,0,5,_,C,1,2,7,_
0,9,5,0,_,3,5,4,_,J,3,2,4,_
0,7,3,6,_,3,9,4,_,D,1,0,1,A,_
0,6,0,6,_,5,5,0,_,C,5,1,8,_
1,0,2,2,_,3,8,0,_,J,5,6,7,_
1,0,1,6,_,1,8,3,_,J,5,5,0,_
0,7,8,3,_,4,0,8,_,D,4,2,5,A,_
1,0,0,1,_,4,8,0,_,J,5,1,0,_
0,0,1,5,_,5,6,1,_,A,1,1,2,_
0,5,1,5,_,2,3,7,_,C,2,4,1,_
0,3,4,7,_,2,2,8,_,B,3,4,0,Z,_
0,0,2,1,_,1,7,3,_,A,1,2,1,_
0,4,2,0,_,2,1,7,_,B,7,6,7,_
0,9,8,1,_,4,1,9,_,J,4,3,2,_
0,5,0,9,_,2,5,3,_,C,2,2,9,_
0,3,3,4,_,2,9,5,_,B,3,2,9,A,_
0,6,6,8,_,2,7,5,_,C,7,1,6,A,_
0,8,7,8,_,2,1,8,_,D,6,3,3,A,_
0,4,6,5,_,4,4,5,_,C,1,1,7,_
1,0,0,3,_,1,1,4,_,J,5,1,5,A,_
0,0,2,8,_,2,7,6,_,A,1,2,6,B,_
1,0,1,1,_,2,1,9,_,J,5,4,3,_
0,6,3,8,_,4,1,1,_,C,6,0,5,A,_
0,4,7,6,_,2,7,9,_,C,1,3,3,A,_
0,7,4,1,_,5,6,4,_,D,1,0,6,_
0,7,1,4,_,2,1,9,_,C,8,1,3,B,_
0,8,0,7,_,1,5,0,_,D,5,0,7,B,_
0,6,1,3,_,5,6,2,_,C,5,2,6,_
0,7,9,4,_,5,5,5,_,D,4,8,9,_
0,1,8,1,_,3,2,7,_,A,7,0,6,_
0,3,0,2,_,4,0,3,_,B,3,0,8,_
0,1,2,5,_,1,3,9,_,A,3,1,9,A,_
0,2,9,9,_,4,7,4,_,B,3,0,5,_
0,5,2,8,_,2,7,5,_,C,3,2,1,B,_
0,5,6,3,_,1,2,0,_,C,4,1,1,A,_
1,0,0,2,_,1,1,3,_,J,5,1,0,A,_
0,5,8,0,_,2,4,5,_,C,4,3,1,_
0,2,2,5,_,1,8,4,_,A,8,6,2,A,_
0,9,3,7,_,5,7,8,_,J,1,7,5,_
0,3,8,9,_,2,6,4,_,B,6,2,3,_
0,2,3,7,_,5,3,9,_,B,1,0,3,_
0,2,4,0,_,3,8,3,_,B,1,0,9,_
0,2,2,3,_,4,0,0,_,A,8,6,1,_
0,4,1,8,_,2,7,0,_,B,7,6,5,B,_
0,7,9,8,_,1,3,9,_,D,4,9,3,_
0,9,5,3,_,3,3,2,_,J,3,2,9,_
0,0,2,3,_,1,4,1,_,A,1,2,1,B,_
0,0,3,4,_,1,7,5,_,A,1,2,9,B,_
0,3,5,7,_,1,0,2,_,B,4,1,2,_
0,6,7,9,_,1,5,6,_,C,7,3,9,B,_
0,9,8,6,_,3,2,3,_,J,4,3,5,A,_
0,5,1,4,_,1,0,6,_,C,2,3,7,_
0,9,9,4,_,1,7,0,_,J,4,4,2,A,_
0,7,3,8,_,5,7,4,_,D,1,0,3,_
0,9,6,4,_,2,9,9,_,J,3,4,8,A,_
0,5,4,8,_,2,6,7,_,C,3,4,0,B,_
0,7,9,6,_,4,8,4,_,D,4,9,1,_
0,1,5,7,_,1,0,4,_,A,5,5,7,A,_
0,3,6,7,_,3,3,9,_,B,4,3,4,_
0,4,5,5,_,5,7,6,_,B,8,3,5,_
0,8,0,0,_,5,2,5,_,D,5,0,2,A,_
0,0,1,2,_,2,6,3,_,A,1,1,0,A,_
0,7,2,4,_,2,4,8,_,C,8,2,2,Z,_
0,3,9,4,_,4,5,6,_,B,6,3,0,_
0,4,7,7,_,5,4,6,_,C,1,3,4,_
0,5,4,6,_,1,2,4,_,C,3,4,0,_
0,6,6,0,_,3,7,6,_,C,6,6,3,_
0,6,9,1,_,2,1,0,_,C,7,6,7,_
0,9,6,0,_,2,0,2,_,J,3,3,5,Z,_
0,0,0,7,_,5,6,1,_,A,1,0,6,_
0,5,6,8,_,1,5,7,_,C,4,1,4,A,_
0,1,6,5,_,2,6,4,_,A,6,4,6,_
0,0,4,7,_,5,5,7,_,A,1,4,7,_
0,4,2,2,_,3,6,2,_,B,7,6,8,_
