P,0378,B240,4241609.14,4024188.41,1980,R08,116
P,1062,D496,4238620.34,4016313.64,1969,R07,365
I,0027,A139,4235818.84,4031063.03,1979,R6,150
P,0216,A560,4234917.49,4024048.11,2006,R6,106
I,0716,D701,4240303.11,4016078.48,1986,UF90,349
P,1320,J148A,4230878.58,4023371.6,1991,UT06,271
I,0545,C743,4243370.81,4020221.67,1992,R90N,152
I,0750,J114,4230109.74,4024398.97,1981,R6,284
I,0080,A309,4237372.45,4022088.82,1984,R6,368
P,0374,B235,4241355.92,4025354.48,1968,R07,498
P,0603,C207,4247918.02,4016584.05,1979,R90N,422
P,0592,C139,4246959.6,4017253.6,1970,R90N,529
P,1312,J141,4230314.46,4024309.21,1966,LT06,573
I,0732,D801A,4241162.3,4016908.62,2004,TE90,131
P,0666,C336,4246075.46,4015467.15,1969,UF90,468
P,0823,C651,4242566.4,4018966.55,1984,R90S,321
P,0043,A149A,4235971.66,4029785.47,1986,R6,347
P,0424,B406,4239947.51,4020066.24,1967,UF08,298
I,0204,B214,4243378.73,4024667.15,1982,R08,390
P,0409,B335,4241672.72,4019989.31,1968,R08,347
P,1441,J469,4234039.87,4019414.57,1966,R6,562
I,0636,D447,4242293.59,4015586.57,1992,UF90,264
I,0661,D517A,4236472.69,4017545.06,1987,R6,139
I,0423,C340,4248309.94,4012375.43,1970,R90N,110
I,0812,J435A,4234907.33,4020864.86,1988,R6,323
P,0020,A122,4231466.88,4024442.92,2006,R6,105
I,0469,C453,4244017.37,4013632.7,1984,R90S,256
P,1326,J163,4230549.79,4023961.93,1966,R6,170
I,0115,A663A,4232353.65,4023249.49,1973,R6,276
P,1476,J555,4233078.93,4016890.78,1966,R6,163
P,1270,D834,4241324.86,4018194.39,1993,TE90,261
P,0681,C405,4246392.19,4016135.57,1970,R90N,542
P,1222,D744Z,4240370.31,4018252.12,2006,R08,101
P,1139,D593,4236170.46,4019439.04,1968,R6,307
P,1431,J460,4233470.2,4019469.93,2001,R6,168
P,0761,C540,4244157.6,4016308.96,1969,R90S,549
P,1210,D730,4238908.48,4020406.42,2004,UF08,126
P,0825,C652A,4243043.91,4018227.06,1996,R90S,232
I,0178,B113,4238876.42,4028725.08,1974,R07,488
I,0251,B326A,4241880.18,4020951.05,1989,R08,230
I,0298,B621B,4239026.86,4020866.88,1995,UT07,238
P,1190,D641,4241086.97,4018834.51,1979,TE08,238
P,0116,A268,4235193.04,4023969.36,1967,R6,467
P,1299,J119,4230567.88,4024544.56,1982,R6,359
I,0397,C235,4249034.03,4016405.92,1994,R90N,254
P,0028,A131,4234057,4030436.55,1985,R6,363
I,0539,C735A,4243355.19,4019457.75,1989,R90S,314
I,0752,J120Z,4229982.28,4023648.03,1999,UT06,190
P,0320,B105A,4237671.57,4027131.54,2005,R07,122
I,0551,C765,4242754.68,4020117.69,1999,R08,185
P,0714,C446,4246178.34,4014105.46,1990,UF90,288
P,0519,B708,4239030.22,4022859.89,1969,R07,554
P,1079,D516,4235311.94,4016933.94,1967,R6,574
P,0225,A640,4232485.31,4024759.07,1985,R6,360
I,0709,D629,4239963.67,4019101.35,1968,R07,519
P,1077,D514,4235810.98,4016830.76,1968,R6,567
P,0434,B427,4239973.59,4020553.81,1968,R07,529
I,0613,D415,4240039.3,4016593.32,1967,R07,144
P,0254,A714,4232097.62,4025473.9,1967,R6,313
P,1482,J562A,4232779.08,4017548.5,1980,R6,400
P,0419,B402,4240427.49,4021152.69,1983,R08,350
P,0726,C512,4244567.57,4015013.42,1969,R90S,482
I,0360,C113A,4248233.52,4019790.76,1986,R90N,195
P,1244,D810,4242777.02,4018328.81,2004,TE90,132
P,0567,B834,4237916.15,4025092.18,1969,R07,121
I,0040,A166A,4236691.26,4030978.97,1991,R6,138
I,0784,J340A,4231508.73,4021093.14,1974,R6,279
I,0456,C426,4245917.89,4014175.45,1973,R90S,295
I,0494,C538,4242490.16,4016567.03,1968,R90S,179
I,0573,C814A,4245630.92,4021788.86,1984,R90N,181
P,0811,C637,4242991.68,4018721.95,1988,R90S,317
P,0813,C639,4242892.25,4020445.61,1984,R08,368
P,0065,A210,4236295.67,4028159.1,1966,R6,415
P,1155,D609,4235551.25,4020823.78,1967,R6,388
P,0258,A721A,4230747.46,4027169.94,1980,R6,180
I,0134,A721A,4230747.46,4027169.94,1980,R6,242
P,1358,J314,4233065.21,4022977.99,1966,UT06,214
I,0619,D419,4240570.91,4016621.07,1968,R07,347
P,0779,C608A,4242878.19,4017445.21,2002,UF90,157
P,1468,J547A,4234170.8,4017405.42,1980,R6,318
I,0006,A110,4232996.73,4025951.84,1967,R6,130
P,0705,C430,4245041.36,4015739.71,1981,R90N,244
P,0802,C625,4246019.46,4017905.35,1967,R90N,463
P,1108,D567,4238571.13,4018539.36,1983,R07,185
I,0237,B315A,4243667.02,4024322.44,1991,R08,292
P,0377,B239A,4242851.54,4022034.65,1992,R08,253
P,0669,C339A,4247384.51,4014825.28,1999,UF90,166
I,0176,B110A,4238466.21,4026507.19,1977,R07,377
P,0279,A809,4231847.7,4030074.37,1984,R6,372
I,0520,C642,4243231.68,4016838.07,1994,R90S,254
I,0420,C337A,4246987.12,4015818.41,1979,R90N,275
I,0715,D640,4240218.14,4018944.15,1981,R07,158
P,0267,A761,4230741.2,4028377,1982,R6,236
P,0089,A237,4237418.31,4025345.05,1970,R6,400
I,0722,D726,4240240.61,4019165.37,2004,UF08,130
I,0401,C303,4249840.14,4015197.21,1992,R90N,191
P,0874,C735,4242951.91,4019608.04,1968,R90S,253
I,0627,D429,4240312.98,4015247.16,1983,R07,190
P,0563,B827A,4238405.52,4025543.95,1976,R07,225
I,0231,B309B,4242659.17,4022209.11,1992,R08,211
I,0003,A104A,4236319.49,4029642.4,2000,R6,176
P,0756,C536,4242853.33,4016279.1,1969,R90S,555
P,0731,C514C,4244042.78,4015128.53,2005,UF90,113
P,0755,C534C,4243168.43,4015665.2,1999,UF90,186
P,0007,A109,4234292.43,4029670.52,1985,R6,356
I,0763,J150A,4232011.58,4023804.43,1971,R6,285
P,1470,J548,4233296.09,4017453.83,1965,R6,595
P,1186,D636A,4241975.15,4019185.15,1980,TE90,421
P,1332,J170,4232958.35,4022986.3,1965,R6,502
I,0570,C813,4245157.24,4021451.79,1968,UF90,200
P,0295,A851,4231206.71,4028208.65,1969,R6,451
P,1333,J171,4230750.96,4022892.07,1967,T05,577
I,0263,B340Z,4241417.85,4019950.25,1996,UF08,110
P,0619,C220,4250204.61,4017210.51,1983,R90N,363
I,0016,A123B,4232988.41,4032353.72,1997,R6,218
P,0598,C201,4247235.98,4015753.46,1967,UF90,270
P,1170,D622,4239365.34,4019737.07,1968,UF08,328
P,0809,C635B,4245385,4017975.35,1999,R90N,155
P,0770,C602A,4242887.12,4016209.48,1971,UF90,527
P,1218,D740,4240934.01,4018661.59,1987,TE08,330
I,0467,C449,4245340.94,4014253.33,1985,UF90,234
P,0475,B610A,4237900.01,4021678.12,1992,R07,155
P,1026,D420,4241784.72,4016063.95,1973,R90S,371
P,0260,A723,4230469.87,4027832.66,1968,R6,141
P,1315,J144,4230183.14,4024261.33,1988,LT06,321
I,0328,B771B,4238104.99,4028474.16,2005,R07,113
I,0383,C143,4246791.53,4019835.03,1984,R90N,268
I,0133,A720,4231549.52,4026324.05,1983,R6,383
P,0230,A661,4231146.45,4024192.38,1980,T05,417
P,0103,A257,4234150.19,4024939.09,1968,R6,549
I,0068,A241A,4236395.68,4024842.78,1984,R6,360
P,1271,D836,4241873.98,4017988.3,1985,R90S,351
I,0431,C358,4249069.38,4015326.54,1993,UF90,260
P,0158,A361,4235323.6,4020703.05,1967,R6,362
I,0193,B130B,4240744.29,4028426.94,1992,R07,233
P,0968,D206,4240885.64,4018175.13,1967,UF08,194
I,0425,C340B,4248010.79,4012885.35,1993,R90N,243
P,0944,D111B,4241543.25,4019013.26,2004,TE90,129
P,1232,D754,4240585.98,4019689.59,1985,R08,117
I,0535,C718,4244339.23,4019563.75,1981,R90N,371
I,0048,A211,4235749.42,4027896.57,1982,R6,387
I,0405,C312B,4250115.5,4015774.17,1992,R90N,269
P,0298,A853,4230265.13,4029837.14,1967,R6,401
P,1469,J547B,4234624.56,4017365.97,2006,R6,105
P,0032,A135,4233814.28,4027558.07,1967,R6,475
I,0371,C132A,4247383.75,4018737.48,1992,R90N,272
P,1120,D580,4236720.12,4018576.36,1968,R6,397
P,0014,A117,4233561.67,4029215.84,1972,R6,402
P,0395,B320,4240232.22,4022321.44,1981,R07,405
I,0591,D106,4242301.68,4018879.03,1968,R08,266
I,0672,D534,4235908.29,4015816.17,1983,R6,378
P,1303,J124,4230171.69,4024829.15,1966,UT06,252
P,0496,B630,4235944.88,4020971.77,1967,R6,456
P,1265,D830,4242592.16,4018061.75,1986,TE90,351
P,1021,D414A,4240983.54,4018601.8,2004,R08,130
P,0447,B440,4238282.25,4021049.89,1971,R07,522
I,0216,B229,4243565.49,4023835.96,1969,R08,554
I,0342,B828,4237621.53,4026837.85,1968,R07,104
P,1076,D513,4235076.61,4016346.17,1968,R6,382
I,0361,C117,4244879.42,4016444.47,1978,R90N,252
I,0056,A226A,4235021.9,4025321.78,2001,R6,163
I,0033,A145,4234611.21,4028016.38,1968,R6,458
I,0130,A718,4230384.77,4026938.44,1983,R6,381
P,0008,A112,4232830.39,4027211.49,1968,R6,561
P,0732,C515,4243815.5,4014610.33,1969,R90S,273
P,0318,B103,4239969.82,4023374.26,1967,R07,350
P,0013,A116,4233127.79,4029621.01,1991,R6,289
P,0550,B771A,4238231.06,4028307.9,1990,R07,189
I,0816,J441,4231427.25,4020064.26,1966,UT06,195
P,0639,C311,4248704.01,4014669.74,1975,R90N,333
P,1331,J168,4230529.02,4022970.51,1983,UT06,199
P,1442,J511,4234656.4,4019380.64,1966,R6,471
P,0925,C841,4241623.93,4019793.03,2005,TE90,117
P,1273,D838,4241486.91,4018163.61,1991,R08,282
I,0644,D497,4238225.43,4016410.88,1968,R6,246
P,1390,J336,4232568.93,4022333.53,1982,R6,227
P,0238,A670,4232299.03,4024029.14,1967,R6,132
P,1395,J341,4232465.05,4022803.12,1967,UT06,330
P,0518,B707,4238105.57,4023117.82,1972,R07,326
P,0417,B340Z,4241417.85,4019950.25,1996,UF08,118
I,0427,C342,4248094.64,4015865.62,1994,UF90,253
P,0865,C719,4245996.03,4016773.05,1977,R90N,460
P,0251,A710,4231591.93,4025650.17,1967,R6,574
I,0637,D448,4241885.24,4015998.33,1983,TE90,251
P,1213,D734,4238983.35,4019971.29,2004,UF08,132
P,1059,D492A,4240830.34,4015370.49,1985,R07,359
P,0178,A404,4233087.59,4024448.63,1967,R6,326
I,0743,D850A,4240748.94,4019012.43,2002,R08,150
P,0784,C612,4242568.24,4018105.46,1968,R90S,565
I,0188,B126A,4240385.23,4027063.3,1992,R07,273
I,0112,A632,4231757.62,4023456.46,2006,R6,103
P,0348,B133A,4239332.6,4027484.5,1977,R07,450
P,0303,A857,4232834.06,4031654.75,1986,R6,349
I,0792,J416,4232496.58,4021120.3,1980,R6,139
P,1100,D541,4234574.88,4016886.3,1983,R6,172
I,0399,C241,4248856.9,4019495.82,1984,R90N,234
P,1451,J517B,4233059.64,4016289.15,2006,R6,104
P,1129,D584A,4241022.75,4018998.96,1983,TE08,156
P,0404,B330,4241089.25,4020681.05,1983,R08,370
P,0051,A169,4235843.64,4028477.08,1972,R6,412
P,1360,J315,4232435.45,4022355.31,1966,R6,229
P,0514,B704,4238142.71,4022355.88,1972,R07,395
P,0470,B605,4236064.72,4021706.6,1995,R6,124
I,0701,D615A,4238083.78,4019422.63,1970,R07,532
P,1049,D443,4241441.84,4017517.09,1983,R08,386
P,0877,C737A,4242164.95,4018443.62,1999,R90S,188
I,0311,B712,4238371.36,4024933.1,1969,R07,257
P,0504,B635,4235695.22,4021217.39,1968,R6,219
I,0760,J137,4231305.34,4024342.86,1966,UT06,232
P,0901,C804,4244569.01,4020188.9,1975,R90N,158
P,1189,D640A,4240532.14,4017938.71,1997,R07,215
P,1013,D407,4242185.82,4016344.11,1969,UF90,309
I,0339,B826A,4237936.24,4024491.98,1977,R07,289
I,0753,J121,4230117.63,4026171.39,1982,R6,238
P,0002,A102,4232860.81,4029101.92,1967,R6,580
I,0731,D801,4241349.28,4016229.5,1991,TE90,156
I,0043,A170,4235221.74,4027798.6,1967,R6,317
P,0704,C429,4245938.34,4016316.13,1981,R90N,395
I,0424,C340A,4248456.3,4012475.33,1980,R90N,146
I,0161,A868B,4234744.47,4030842.44,1997,R6,219
P,0484,B623,4237002.96,4020825.75,1967,R6,264
P,0961,D202,4242814.56,4017688.26,1968,UF90,281
I,0421,C337B,4248116.22,4016205.99,2002,R90N,158
P,0845,C670,4242315.96,4018766.72,1991,R90S,288
I,0389,C218,4249350.91,4018130.9,1982,R90N,198
I,0524,C653,4244026.71,4017790.3,1992,TE90,271
I,0546,C743A,4243484.02,4020244.52,2005,R90N,117
P,0240,A672A,4231822.68,4024120.17,1971,R6,530
P,1282,D847,4241679.08,4018772.7,1985,TE90,355
I,0455,C423,4244615.32,4014504.69,1969,R90S,250
P,0233,A665,4230248.47,4024203.49,1993,UT06,260
I,0066,A240A,4236724.08,4024944.73,1984,R6,371
P,0181,A406,4233368.12,4024475.55,1984,R6,372
P,0658,C328,4248112.22,4014781.41,1970,R90N,540
I,0556,C801A,4245055.65,4019170.92,1986,R90N,338
P,0263,A737,4231039.86,4025301.66,2000,R6,178
P,1325,J160A,4230607.73,4022754.34,1983,UT06,386
P,1051,D446A,4241672.3,4018408.74,2004,R08,135
P,0833,C658,4243330.74,4019083.43,1984,R90N,149
P,1201,D716,4236181.87,4020399.72,2003,R6,140
P,1413,J422,4232204.11,4021775.96,1981,R6,211
P,0969,D206A,4240788.59,4018340.14,1983,UF90,377
I,0689,D593,4236170.46,4019439.04,1968,R6,258
I,0297,B620A,4239051.76,4021440.79,1978,R07,328
P,0610,C213,4243398.29,4018853.49,1975,R90N,205
P,0710,C434,4244333.74,4016550.23,1974,R90N,439
I,0411,C324B,4249398.1,4014205.11,1989,R90N,313
I,0079,A307,4236840.66,4022026.32,1969,R6,337
I,0478,C515,4243815.5,4014610.33,1969,R90S,266
I,0194,B137,4241388.76,4028046.62,1983,R07,383
P,0476,B611,4236787.89,4021016.97,1983,R6,380
P,1237,D804,4240293.06,4017837.89,1995,TE08,239
P,0120,A274,4234734.79,4024012.44,1967,R6,468
I,0501,C549,4242648.37,4017135.23,1989,TE90,309
I,0030,A142,4233584.79,4025834.59,1967,R6,345
I,0196,B140A,4241522.56,4025696.46,1993,R07,264
I,0554,C768A,4245236,4018423.35,1996,R90N,230
P,0487,B624,4237720.04,4021199.91,1967,R07,384
P,1450,J517A,4234271.55,4018564.98,1980,R6,309
P,0095,A249,4237330.47,4027165.37,2003,R6,137
P,0152,A358,4235681.78,4022099.89,1981,UT06,164
I,0200,B210,4242267.66,4025575.97,1982,R08,126
P,1256,D823,4241885.96,4017549.84,1985,TE90,272
P,0222,A631,4232284.25,4022709.62,2003,UT06,123
I,0548,C760,4242121.35,4020048,1993,TE90,164
I,0510,C611,4242970.91,4017817.3,1968,R90S,197
P,1249,D817,4241697.58,4019210.11,2002,R90S,153
I,0443,C412B,4245754.62,4011858.94,1980,R90S,138
P,1250,D818,4241958.06,4018891.13,2003,TE90,137
P,1168,D619,4239324.1,4019916.35,1968,R07,385
P,0557,B815,4239564.3,4027741.69,1992,R07,181
I,0073,A264,4235136.23,4024197.83,1983,R6,122
I,0541,C739,4243880.86,4019895.71,1967,R90N,122
P,0376,B238,4241974.84,4023019.94,1967,R08,570
I,0147,A829,4232553.14,4029959.37,1986,R6,261
P,0406,B333,4241883.07,4020079.15,1969,UF90,343
P,0962,D202A,4242638.96,4017563.14,1991,UF90,286
P,1054,D489,4239496.79,4015742.59,1969,R07,555
P,1268,D832A,4241867.59,4018307.11,1991,TE90,291
I,0769,J163B,4230664.12,4023957.36,1983,R6,234
P,1278,D843,4242295.38,4018538.1,1985,TE90,361
I,0400,C302,4248744.77,4015727.56,1996,R90N,232
P,0701,C426,4245917.89,4014175.45,1973,R90S,199
P,0720,C452,4245333.17,4016272.33,1984,R90N,248
P,1308,J132,4230124.94,4023718.86,1967,T05,440
I,0274,B426,4240546.04,4020845.45,1985,R08,361
I,0654,D507A,4237587.59,4017067.07,1981,R6,251
P,1425,J439,4232406.64,4019343.34,1981,R6,167
P,1152,D605,4238737.09,4019854.96,1977,UF08,467
P,0234,A666A,4232926.86,4023175.09,1971,R6,126
P,0235,A667,4230619.74,4024194.47,1980,T05,414
P,0771,C603,4242464.51,4016741.9,1968,UF90,206
I,0611,D413B,4241617.73,4015632.81,1981,TE90,217
P,1367,J320,4230572.25,4021820.14,1966,UT06,176
I,0759,J136A,4230315.76,4023481.22,1970,R6,391
I,0116,A666A,4232926.86,4023175.09,1971,R6,210
I,0119,A671,4230641.98,4025212.54,1993,UT06,258
I,0598,D214B,4242748.99,4017794.35,2002,R90S,153
P,0694,C418,4245698.04,4014771.71,1970,UF90,378
P,0339,B122,4240111.4,4025345.61,1969,R07,291
P,1153,D608,4236457.93,4020612.84,1968,R6,152
P,1466,J544A,4232513.25,4017764.28,2006,R6,104
P,0529,B722,4236054.64,4021597.79,1998,UT06,208
P,0483,B622,4237925.72,4020583.79,1968,R07,257
P,1147,D599,4238100.48,4018913.02,1968,R07,411
P,1276,D841,4241376.23,4018715.67,1984,R08,371
P,1334,J172,4231146.9,4023292.77,1981,R6,407
P,0979,D213,4241589.31,4018253.06,1968,R08,565
P,0255,A715,4230736.68,4025238.56,1982,R6,202
P,1138,D592,4240262.47,4017829.38,1978,UF08,209
P,0114,A266A,4235865.18,4023773.26,1988,R6,317
P,1364,J317,4232026.32,4021739.85,1966,R6,430
P,1101,D544,4235246.14,4018665.36,1982,R6,392
P,1209,D729,4236111.15,4019579.51,2004,R6,135
P,0698,C423,4244615.32,4014504.69,1969,R90S,238
P,1370,J321A,4230405.83,4022692.98,2001,UT06,165
I,0751,J116,4230390.2,4025309.46,1966,UT06,379
I,0057,A231,4236739.56,4027174.26,1983,R6,346
P,0257,A721,4230586.76,4027220.79,1968,R6,145
I,0007,A110A,4233047.09,4025898.41,1978,R6,263
P,0164,A365,4234466.28,4021560.03,1968,R6,564
P,1389,J334A,4232392.29,4021925.55,1984,R6,375
P,0830,C656B,4242520.87,4018318.16,1996,R90S,225
P,0039,A143A,4235500.74,4030166.52,1985,R6,354
P,0725,C460,4244579.21,4016419.88,1985,R90N,363
I,0733,D803,4240099.35,4017647.73,1985,R07,232
P,0677,C403,4247117.49,4014752.49,1971,UF90,232
I,0210,B221,4242733.37,4022939.68,1990,R08,228
P,0346,B131,4239467.09,4023530.04,1968,R07,389
I,0128,A714,4232097.62,4025473.9,1967,R6,258
I,0117,A666B,4232781,4022719.71,1999,R6,185
P,0271,A769,4231097.8,4028814.96,1982,R6,121
I,0603,D404A,4241275.79,4016472.37,1993,TE90,175
P,0150,A357,4234847.88,4022027.94,1968,R6,356
P,0040,A145,4234611.21,4028016.38,1968,R6,101
P,1464,J541A,4233911.12,4017943.95,1971,R6,237
P,0153,A358A,4235473,4022072.26,1994,R6,246
P,0924,C840,4241487.7,4018678.27,2005,TE90,115
I,0831,J523,4231532.49,4018925.14,1966,R6,319
P,0524,B711,4238005.1,4023906.69,1967,R07,495
P,1208,D728,4241300.08,4017822.16,1985,TE90,355
P,0652,C322,4245744.93,4016172.13,1973,R90N,443
P,1243,D809,4240643.13,4017489.66,1987,TE08,332
P,0551,B773,4239301.4,4028237.59,1983,R07,379
I,0074,A264Z,4235136.23,4024197.83,1993,R6,263
I,0463,C443A,4246823.73,4014820.34,1992,UF90,276
P,0256,A717A,4230296.43,4028597.66,1968,R6,373
P,1174,D624,4238856.36,4020065.41,1967,R07,572
P,0204,A540,4233615.91,4022758.68,1984,UT06,367
I,0100,A401Z,4229986.16,4024260.61,2001,R6,166
I,0230,B309A,4241250.68,4022098.8,1982,R08,121
P,0859,C710A,4243356.14,4021757.56,2004,R08,126
P,0136,A314B,4235975.21,4023467.69,2001,R6,171
I,0362,C125,4247687.66,4021622.78,1967,R90N,421
P,0555,B810A,4240046.72,4024948.33,1986,R07,348
P,0740,C523C,4243676.55,4015982.72,1997,UF90,220
P,0046,A152,4234920.14,4027350.83,1968,R6,311
P,0330,B117,4239032.74,4025717.79,1968,R07,370
I,0146,A821A,4232856.31,4030942.28,2000,R6,177
I,0142,A771,4229995.46,4032237.22,1985,R6,249
P,1430,J449,4233063.77,4020313.09,1966,R6,582
P,0290,A835,4231748.45,4030741.79,1985,R6,117
P,0226,A643,4231801.04,4024605.25,1997,R6,220
P,1069,D502A,4238480.95,4017534.56,1971,R07,340
I,0555,C801,4244698.81,4019398.99,1967,R90N,216
P,0767,C548,4243112.53,4017435.75,1983,TE90,378
I,0474,C459,4242277.66,4017266.95,1989,TE90,313
P,0122,A302,4235479.08,4024395.83,1967,R6,579
I,0849,X003,4232001.02,4033264.56,1983,R6,143
P,0510,B639,4237507.65,4022909.25,1975,R07,395
P,1137,D591Z,4237933.14,4018791.14,1998,R07,203
I,0326,B769,4239004.83,4029564.83,1983,R07,176
P,0946,D112A,4240086.76,4018813.54,1983,UF08,170
I,0372,C133,4249205.94,4017574.73,1970,R90N,264
P,1080,D518,4236500.02,4017994.86,1967,R6,372
I,0059,A236A,4235481.97,4025351.6,2003,R6,142
P,0721,C455,4243820.7,4014482.42,1996,UF90,103
I,0417,C335,4246381.16,4011988.73,1969,UF90,238
P,1324,J159,4231115.72,4023692.24,1980,UT06,126
P,0308,A865,4231016.2,4031719.78,1981,R6,402
P,1240,D806,4239505.43,4016796.12,2004,UF90,134
P,0005,A107,4232188.31,4029598.13,1970,R6,543
P,0921,C837,4244492.62,4021844.75,1977,R90N,459
P,0096,A251,4232413.79,4024335.01,2004,R6,130
P,0186,A410A,4235191.99,4022764.95,1991,UT06,285
P,0798,C623,4242565.29,4019138.29,1968,R90S,248
P,0189,A413,4234082.9,4021798.78,1997,UT06,217
P,1461,J526,4232756.94,4018939.59,1965,R6,570
P,0692,C416Z,4246009.67,4016426.63,1999,UF90,145
P,1259,D825A,4242018.75,4017719.38,1987,UF90,125
I,0666,D525,4238792.01,4016723.94,1982,R07,223
P,0118,A270,4235391.18,4023290.48,2006,R6,108
I,0464,C444,4246916.11,4013181.37,1994,UF90,243
I,0364,C126Z,4245726.1,4020156.8,1991,R90N,291
P,1484,J567,4232946.82,4017228.48,1983,R6,176
I,0331,B777,4238528.71,4029932.58,1985,R07,235
I,0334,B807,4240097.83,4028748.8,1984,R07,107
P,1181,D632,4241810.94,4019211.41,1968,R08,380
P,1251,D819,4242563.23,4017264.34,1991,UF90,190
P,1198,D712,4237800.75,4021566.29,1997,UT07,140
I,0335,B807A,4240149.41,4028704.54,1993,R07,224
P,0844,C669A,4242419.33,4020534.81,1996,R08,230
P,0268,A763,4230061.53,4031449.3,1982,R6,124
I,0025,A130B,4233873.63,4028381.5,2001,R6,165
I,0395,C230,4252459.27,4014492.36,2005,BU,113
P,0337,B121A,4239525.29,4026769.14,1997,R07,144
P,1161,D613,4238561.55,4018867.31,1967,R07,374
I,0214,B227,4243530.38,4026058.58,1967,R08,134
P,0837,C664,4243455.98,4017838.53,1994,R90N,254
I,0152,A850A,4232004.89,4026293.21,1978,R6,172
I,0374,C136,4250454.09,4015861.28,1969,R90N,232
I,0581,C822Z,4246922.3,4018672.23,1994,TE90,248
P,0034,A137,4234130.02,4028964.27,1969,R6,556
I,0466,C445A,4244675.04,4013061.85,2006,UF90,101
P,0280,A811,4231029.53,4032229.38,1984,R6,373
P,0285,A825A,4231735.64,4029378.22,2000,R6,179
I,0772,J175,4230562.17,4022667.85,1965,R6,458
I,0296,B620,4239003.17,4021472.37,1967,R07,102
P,1087,D525,4238792.01,4016723.94,1982,R07,177
P,0266,A759,4229995.56,4029820.36,1984,R6,139
I,0186,B123B,4240636.76,4025792.64,1991,R07,289
I,0513,C628,4245494.08,4015783.34,1980,R90N,416
P,0792,C619,4241996.64,4018385.17,1969,R90S,546
P,1115,D575,4235937.13,4018098.3,1968,R6,369
P,0778,C608,4243152.29,4017231.59,1967,UF90,413
P,0242,A703B,4230256.06,4023264.35,2006,T05,103
P,0947,D112B,4240631.08,4017179.11,1997,R07,216
P,1359,J314A,4232840.52,4022946.69,1984,UT06,374
P,0172,A373,4234669.2,4022351.33,1983,UT06,239
I,0221,B233,4243494.82,4022792.71,1967,R08,117
I,0614,D415A,4239904.46,4016583.51,1980,R07,226
I,0708,D628B,4239749.85,4019329.98,1995,UF08,243
I,0017,A126B,4235164.06,4029102.61,1992,R6,276
P,0958,D119A,4240974.24,4018763.73,1990,R08,294
I,0105,A556,4233288.59,4023377.66,2006,R6,104
P,0789,C617,4242218.4,4019314.71,1970,TE90,415
P,0928,D101,4240584.96,4020036.35,1967,UF08,178
P,0826,C654,4242778.19,4018977.52,1984,TE90,365
P,0364,B215,4242905.06,4023807.09,1983,R08,311
P,0037,A141,4234926.56,4029443.64,1968,R6,547
P,1337,J174,4231602.49,4023175.59,1965,R6,447
I,0516,C635A,4244535.45,4018111,1989,TE90,117
P,0899,C802,4242967.39,4019238.49,1969,UF90,255
P,0581,C115,4246941.91,4018726.04,1981,R90N,412
P,0309,A866A,4231686.69,4027969.76,1969,R6,388
P,0926,C844,4246014.53,4020671.37,1985,R90N,342
I,0155,A858A,4231474.47,4028985.09,2003,R6,144
P,1471,J552,4234766.11,4017001.85,1966,R6,157
I,0817,J441A,4231410.66,4020112.22,1982,UT06,225
I,0558,C803,4242483.09,4019482.72,1973,TE90,234
P,1024,D418,4239453.22,4017244.16,1967,R07,492
P,0408,B334Z,4242577.79,4020423.6,1997,UF08,214
P,0231,A662,4230706.28,4024416.7,1980,T05,125
P,0082,A229,4237131.85,4025927.43,1969,R6,549
P,0011,A114A,4234510.88,4029212.64,1993,R6,266
P,1230,D750A,4239628.78,4019298.12,2004,TE08,134
P,0807,C629,4243077.19,4018112.66,1983,TE90,355
P,1144,D597,4235059.08,4019445.45,1980,R6,418
I,0132,A719A,4229857.43,4027744.42,1979,R6,261
I,0272,B414,4239934.01,4021185.16,1967,R07,476
P,0655,C325,4245747.56,4014597.42,1972,R90S,456
P,1166,D617A,4241769.87,4015421.09,2002,UF90,152
I,0832,J529,4234075.81,4018224.68,1983,R6,287
P,1068,D501,4237268.67,4016537.09,1968,R6,399
P,0836,C662,4245404.69,4018095.28,1984,R90N,249
P,0909,C811,4244943.38,4020088.31,1967,R90N,514
I,0306,B701,4240068.49,4023190.75,1968,UF08,213
P,1066,D499,4237735.68,4016412.23,1968,R6,561
P,0278,A807,4231064.42,4028053.57,2006,R6,102
I,0246,B321,4240563.37,4022090.88,1982,R08,241
P,1145,D598,4237078.03,4018710.27,1981,R6,248
P,0805,C626B,4242893.07,4018085.26,1994,UF90,256
P,0369,B228,4241077.96,4022886.91,1967,R08,574
P,1223,D745,4238398.85,4019961.05,1984,UT07,367
P,1121,D581,4236239.71,4018709.21,1968,R6,131
P,0915,C821,4245451.04,4019712.79,1975,R90N,323
P,0202,A538,4235316.14,4018107.21,2000,R6,174
P,1371,J322,4231551.39,4023549.03,1965,UT06,595
P,1245,D811,4240938.06,4018656.65,2002,TE08,158
I,0187,B126,4240421.66,4027508.04,1970,R07,259
P,0685,C410,4246212.96,4014702.69,1969,R90N,302
P,0347,B132,4240901.73,4026200.38,1972,R07,474
P,0765,C545,4243782.49,4017077.61,1985,R90N,330
P,0367,B225,4242343.62,4027064.96,1968,R07,178
I,0682,D571Z,4239867.08,4017800.07,2002,UF08,105
I,0648,D503,4238525.5,4016858.42,1967,R07,483
I,0058,A236,4235508.29,4025287.56,1967,R6,373
P,0048,A166B,4235961.85,4030367.92,2003,R6,148
I,0284,B501,4238789.67,4020698.67,1969,UF08,265
I,0542,C739A,4244083.14,4019886.17,1979,R90N,270
P,0834,C660,4243697.11,4018547.84,1986,R90N,350
P,0360,B207,4241307.59,4027297.71,1982,R07,391
P,1163,D616,4238386.23,4020168.8,1968,R07,172
P,1188,D639,4240355.41,4019698.01,1991,TE08,287
P,0205,A541,4232962.06,4024333.45,2004,R6,130
P,0903,C805,4244084.96,4020657.53,1967,R90N,444
P,0711,C440,4248474.14,4013097.5,1993,UF90,257
P,0250,A709,4231087.17,4025700.55,1967,R6,578
I,0847,X001,4231338.36,4034585.69,1967,R6,195
P,0536,B742,4238493.66,4022799.62,1986,R07,349
P,0959,D120A,4241984.12,4018341.12,1970,TE90,449
P,1305,J129,4230070.7,4024017.4,1966,UT06,288
P,0472,B608,4237758.06,4021466.44,1984,R07,357
P,1085,D523,4234519.49,4016441.92,1973,R6,258
P,0815,C643,4242374.61,4017980.44,1984,TE90,306
I,0377,C138,4250148.85,4018406.44,1983,R90N,247
I,0826,J510,4234428.86,4018002.9,1965,R6,477
I,0107,A562,4233239.52,4023791.53,2003,UT06,137
P,0110,A263,4237019.22,4023580.16,1969,R6,554
I,0094,A366,4234040.78,4022845.56,1983,R6,378
I,0072,A262A,4236767.49,4022713.15,2003,UT06,142
I,0757,J124,4230171.69,4024829.15,1966,UT06,329
I,0353,B839,4237694.64,4026228.34,1969,R07,252
I,0576,C819A,4243842.14,4023141.4,1981,R08,361
P,0956,D118A,4242370.43,4018349.36,1993,TE90,259
P,0526,B716,4236842.87,4021635.02,1989,R6,280
I,0183,B116C,4239836.78,4026252.84,2001,R07,165
I,0262,B340,4241417.85,4019950.25,1975,UF90,252
P,0133,A313,4235947.41,4021858,1982,R6,141
P,1184,D635,4238380.93,4016017.13,1975,R6,480
P,0606,C209,4248318.71,4016072.43,1976,R90N,469
P,0400,B326,4242072.56,4020756.15,1967,R08,255
I,0403,C312,4250266.52,4015545.16,1970,R90N,163
P,1112,D572,4234980.78,4017052.3,1968,R6,560
P,0972,D209,4241818.02,4017886.98,1967,TE90,569
P,0154,A359,4234977.17,4021456.81,1967,R6,134
I,0675,D541,4234574.88,4016886.3,1983,R6,126
I,0479,C516,4244347,4012904.33,1968,TE90,247
P,0493,B628,4236354.12,4020941.68,1968,R6,352
I,0734,D805A,4241113.29,4018579.28,2000,TE08,106
P,0577,C108,4247270.66,4019489.9,1981,R90N,271
P,1255,D822,4240333.03,4018122.78,1984,R07,370
I,0320,B746,4238306.8,4023408.93,1985,R07,238
I,0344,B829,4239467.94,4024085.5,1968,R07,153
P,0734,C517A,4245578.41,4013575.93,2006,UF90,103
P,0892,C763,4243391.9,4020601.71,2005,R90N,121
P,0302,A855,4230726.52,4028892,1969,R6,317
I,0692,D600A,4235254.25,4021389.37,2003,UT06,137
P,0929,D102,4238845.37,4018104.28,1969,UF08,465
P,0768,C550,4243621.83,4017581.33,1984,R90N,376
P,1117,D577,4235236.64,4018349.7,1968,R6,559
I,0665,D523A,4233484.56,4016129.81,1994,R6,245
P,1028,D421,4240630.6,4016045.98,1968,R07,557
I,0468,C452,4245333.17,4016272.33,1984,R90N,126
P,0365,B217,4243407.46,4023201.27,1982,R08,392
I,0195,B138,4240514.32,4024337.29,1968,R07,114
P,0818,C647,4245524.13,4017763.42,1994,R90N,134
P,1407,J412A,4232736.74,4019966.37,2006,R6,110
I,0798,J419A,4234496.38,4020939.03,2001,R6,167
I,0435,C407A,4247322.59,4012163.03,1980,R90S,319
P,0670,C345,4249053.92,4011826.33,2006,BU,102
P,1310,J137,4231305.34,4024342.86,1966,UT06,255
I,0376,C137A,4247556.07,4017284.09,2002,R90N,154
I,0139,A763,4230061.53,4031449.3,1982,R6,270
P,0843,C669,4242865.65,4019509.41,1986,R90S,122
P,0644,C316A,4247036.88,4014817.61,1994,R90N,240
I,0845,J567,4232946.82,4017228.48,1983,R6,204
I,0022,A129B,4233776.17,4031748.98,2000,R6,169
P,0940,D109Z,4241150.85,4018518.37,1990,TE08,258
P,0810,C636,4242650.54,4018416,1985,R90S,360
I,0785,J346A,4232088.91,4021367.05,1984,UT06,298
I,0578,C820A,4243575.23,4022623.27,2002,R08,156
P,1023,D416,4239101.86,4016232.71,1967,R07,420
I,0050,A213A,4237217.69,4027129.65,1981,R6,253
P,0083,A230,4236296.32,4025615.67,1968,R6,554
P,0861,C712A,4242927.36,4020016.67,1996,R08,231
I,0543,C739B,4244603.89,4020761.78,2002,R90N,156
P,1415,J429,4231735.43,4020462.96,1966,R6,376
P,0713,C442,4247704.71,4013312.69,1993,UF90,268
I,0612,D414,4241905.75,4013215.94,1968,R90S,430
I,0584,C842A,4245646.27,4023255.29,1990,R90N,196
I,0198,B205,4240648.59,4025079.45,1982,R07,232
I,0615,D416A,4241912.36,4017887.96,2002,UF90,153
P,0087,A235,4237515.61,4026129.93,1983,R6,363
P,1311,J140,4231092.6,4022888.32,1965,UT06,336
I,0192,B130A,4241031.01,4029048.11,1972,R07,243
I,0118,A668,4232639.77,4024583.48,1967,R6,262
P,1217,D739,4237259.16,4022003.83,1993,R6,259
I,0540,C736,4243987.9,4018571.14,1969,UF90,296
P,0695,C420,4245803.27,4017277.35,1970,R90N,539
P,0413,B338,4240574.01,4021691.33,1967,R08,571
I,0067,A241,4236975.68,4024842.69,1968,R6,180
P,1216,D738,4239919,4018829.49,1985,UF08,357
P,1073,D509,4236056.29,4016237.56,1968,R6,333
P,0067,A212B,4235850.44,4028854.34,1998,R6,205
P,0703,C428,4247389.34,4013722.97,1976,R90N,468
P,0522,B710A,4237839.98,4028056.4,1980,R07,205
I,0224,B239,4245792.56,4024244.06,1968,R08,264
P,0362,B211,4242717.26,4022151.68,2005,R08,116
I,0385,C146,4247368.36,4019896.58,1984,R90N,174
P,0679,C404,4247055.72,4013626.78,1969,R90N,281
P,1248,D816,4241964.29,4018294.25,2000,R08,183
P,0059,A203,4235308.61,4026453.81,1968,R6,562
I,0304,B636A,4238173.89,4021969.69,1989,R07,311
P,1272,D837,4241449.95,4018249.94,1984,TE90,286
P,1277,D842,4241128.37,4018673.11,1985,R08,360
P,0863,C715,4242101.68,4020144.29,1978,R08,447
I,0319,B740A,4238309.3,4023024.13,1990,UT07,294
P,1081,D519,4237487.23,4017766.88,1967,R6,487
I,0650,D504A,4237094.8,4014296.18,1978,R6,437
P,0109,A262,4236537.46,4024391.73,1967,R6,429
I,0324,B767,4238061.19,4028603.26,1983,R07,214
P,0388,B308,4242223.42,4023785.54,1979,R08,403
P,1480,J561,4233377,4017108.15,1984,R6,370
I,0498,C544Z,4244376.99,4017226.29,2000,R90N,182
P,0781,C609A,4243595.39,4017479.11,1982,UF90,157
P,1107,D566,4242649.76,4018008.06,1991,UF90,282
P,0653,C323,4248592.7,4014910.08,1968,UF90,299
P,0814,C641,4243090.08,4017704.35,1984,UF90,154
I,0141,A769,4231097.8,4028814.96,1982,R6,277
P,0699,C424,4244818.57,4015178.93,1970,UF90,543
I,0620,D419A,4240630.38,4016640.94,2002,R07,149
P,0516,B705,4237168.01,4023432.38,1967,R6,569
P,0108,A261,4237056.95,4024214.15,1968,R6,301
I,0594,D113B,4240030.04,4018453.85,1997,TE08,217
I,0844,J560,4232080.94,4018336.95,1981,R6,410
P,0366,B220A,4240646.48,4023880.95,2001,R07,167
P,0344,B127,4240798.49,4026812.97,1975,R07,427
P,0667,C338B,4246683.01,4014082.4,1999,R90N,190
I,0209,B219,4244671.72,4023915.95,1982,R08,257
I,0001,A101B,4234715.37,4029983.12,1993,R6,258
P,0569,B835,4240330.54,4026611.47,1967,R07,576
P,0533,B737,4237387.03,4021512.27,2004,R6,126
P,1479,J558B,4233744.29,4016729.64,1983,R6,379
I,0582,C839A,4244993.55,4021959.06,1990,R90N,302
P,0824,C652,4242183.23,4019234.58,1984,R08,139
I,0807,J430,4234770.57,4018050.14,1981,R6,110
P,0431,B413,4239669.39,4020644.75,1967,R07,527
P,1235,D802,4240228.74,4017223.86,2002,TE08,153
P,0640,C313,4249668.81,4014428.9,1972,R90N,159
P,1149,D602,4235173.25,4019561.72,1967,R6,375
P,1291,J111,4230601,4025720.44,1982,R6,132
I,0345,B829A,4239579.96,4024109.6,1981,R07,329
P,0628,C236,4250800.04,4012660.75,2006,BU,104
P,0286,A827,4232354.3,4030458.4,1986,R6,346
P,0966,D205,4241262.72,4019053.82,1978,R08,358
I,0219,B231A,4242174.19,4028271.14,1982,R07,209
P,0764,C543,4243562.12,4017002.1,1985,UF90,363
P,1007,D402,4242207.51,4016317.3,1968,R90S,560
I,0790,J411,4231019.41,4020781.47,1965,R6,487
P,1058,D491,4239151.74,4015928.77,1975,R07,484
P,1061,D495,4237470.48,4016128.08,1974,R6,488
P,0243,A704,4231868.09,4024970.91,1967,R6,438
P,0106,A259,4237533.11,4023097.02,1985,R6,364
P,0965,D204,4240895.1,4018357.22,1968,TE08,566
P,1224,D746,4239781.03,4019138.27,2002,TE08,157
P,1203,D718,4241482.73,4017321.65,1984,UF90,368
I,0638,D448A,4242180.04,4016971.92,2004,TE90,128
I,0208,B218,4241569.76,4022728.56,1992,R08,278
I,0321,B756,4239025.57,4024205.64,1986,R07,309
P,1211,D732,4241081.61,4019292.85,2004,TE90,125
I,0275,B428,4239596.25,4020436.06,1981,R07,191
I,0843,J559A,4234380.62,4015066.35,1979,R6,426
P,0759,C539,4244843.11,4017709.1,1969,UF90,364
I,0508,C607A,4244719.95,4017260.42,1991,R90N,285
P,1457,J522,4234870.93,4019548.41,1976,R6,283
P,0237,A669,4231358.65,4024198.57,1967,R6,580
I,0789,J410,4233522.44,4020847.14,1965,R6,406
P,0538,B746,4238306.8,4023408.93,1985,R07,122
I,0145,A821,4232810.07,4030905.99,1985,R6,184
P,0910,C813B,4242514.96,4018765.25,1997,TE90,219
P,1029,D422,4240162.24,4016027.73,1968,R07,475
I,0307,B701A,4239491.62,4021663.54,1985,UF08,351
I,0465,C445,4245723.01,4013413.16,1984,R90S,269
P,1119,D579,4237141.37,4018467.7,1968,R6,564
P,0273,A771,4229995.46,4032237.22,1985,R6,107
I,0317,B735,4236200.14,4022257.98,2005,R6,116
P,1030,D424,4240197.53,4015596.88,1969,R07,553
P,0036,A140,4234013.21,4026970.2,1968,R6,561
I,0432,C403A,4246674.27,4015905.08,1990,UF90,126
P,0492,B627A,4237514.99,4020635.4,2005,R07,120
P,0262,A736,4231555.08,4025127.47,1985,R6,358
P,1435,J465,4235060.85,4020000.41,1966,R6,332
P,0060,A204A,4236899.44,4030244.17,2003,R6,138
P,0900,C803,4242483.09,4019482.72,1973,TE90,269
P,0820,C648A,4244778.51,4016972.45,1997,UF90,149
I,0530,C711A,4242851.55,4021104.71,1993,R08,260
I,0085,A351,4235270.25,4022553.49,1968,R6,145
P,0045,A151,4234802.54,4030452.36,1981,R6,336
P,1123,D582,4235747.63,4018840.81,1968,R6,319
I,0388,C210,4241887.99,4019701.92,1974,TE90,200
I,0042,A167B,4237577.61,4031517.18,1974,R6,220
P,0801,C624,4243978.28,4018222.55,1967,R90N,570
P,1075,D511,4236348.74,4016730.73,1967,R6,571
P,1340,J177,4232253.36,4023048.5,1966,R6,165
P,0637,C301,4250944.76,4013400,2005,BU,116
P,1126,D583,4235449.62,4018895.68,1968,R6,468
I,0721,D723,4235954.89,4020077.02,1984,R6,370
P,0239,A670A,4232350.54,4024014.51,1978,R6,445
P,0570,B837,4237838.58,4025703.18,1968,R07,557
I,0726,D752,4240723.16,4020228.95,1987,TE08,246
P,1089,D528,4237940.61,4015530.48,1982,R6,185
P,0513,B703,4237613.31,4022592.67,1967,R07,313
P,0349,B135,4240227.09,4027756.35,1980,R07,416
I,0350,B833,4239460.31,4030427.83,1967,R07,395
P,0145,A355,4235374.57,4021293.93,1968,R6,208
I,0414,C331,4248456.01,4014047.85,1969,R90N,303
P,0858,C710,4243572.27,4021567.12,1985,R08,228
P,1285,D850,4240807.61,4019267.55,1984,R08,222
I,0217,B230,4240404.16,4023268.09,1967,R07,230
P,0500,B633,4237817.41,4022121.39,1984,UT07,188
I,0491,C535,4243480.07,4016601.51,1967,R90S,139
P,0119,A271,4237317.18,4023918.82,1982,R6,294
P,0442,B438,4238629.44,4020968.93,1968,R07,328
P,0024,A126,4233467.36,4026502.79,1968,R6,160
P,0155,A359A,4234939.55,4021365.71,1979,R6,259
I,0260,B337,4240778.56,4020899.81,1976,R08,189
P,1455,J520,4233677.15,4017563.53,2006,R6,105
I,0459,C431A,4247995.83,4012128.77,2006,UF90,108
I,0123,A708B,4232142.95,4026245.16,2003,R6,144
I,0243,B319,4242522.94,4021036.58,1967,R08,131
P,0101,A255,4236481.88,4023325.4,1988,R6,325
P,1439,J468,4234103.49,4019701.84,1982,R6,285
P,0294,A849A,4231920.93,4027041.36,2004,R6,130
P,1124,D582A,4236183.06,4019049.59,1995,R6,158
P,0783,C611,4242970.91,4017817.3,1968,R90S,361
P,0311,A867A,4232281.59,4032497.26,2000,R6,177
I,0668,D528A,4237927.64,4015491.38,1997,R6,215
I,0044,A171,4236043.02,4027735.41,1967,R6,192
P,0585,C128,4246514.52,4019306.26,1969,R90N,528
P,0247,A706A,4231285.95,4024631.84,1994,R6,246
P,1448,J516,4232920.38,4018928.52,1981,R6,191
P,0050,A168,4235684.87,4029258.16,1979,R6,430
P,1032,D426,4239611.02,4016104.04,1970,R07,326
P,1287,D854A,4240456.49,4020236.67,1997,R08,210
P,1195,D709,4237346.89,4022612.33,1993,R07,108
P,1483,J564,4232114.9,4017567.01,1966,R6,591
P,1246,D812,4241088.81,4018971.75,2002,TE08,152
P,0474,B610,4237914.58,4021597.76,1983,UT07,112
P,1473,J553,4234343.4,4016508.12,1966,R6,158
P,0139,A317,4235823.86,4021936.15,1969,R6,381
I,0258,B334,4242577.79,4020423.6,1986,UF90,130
P,0497,B631A,4237937.81,4021938.2,1972,R07,520
I,0020,A127B,4234650.83,4032614.84,1981,R6,129
P,0525,B712,4238371.36,4024933.1,1969,R07,283
P,1405,J411,4231019.41,4020781.47,1965,R6,109
P,0842,C668,4242741.42,4018408.6,1992,TE90,253
P,0291,A848,4232544.68,4025360.95,1967,R6,478
P,0612,C213B,4243364.13,4018732.21,1997,R90N,212
P,1266,D831,4240076.93,4018619.77,1991,TE08,283
P,0930,D103,4241027.95,4019648.51,1967,R08,574
P,0709,C433,4242486.12,4015521.45,1976,R90S,339
P,0304,A858,4232075.6,4026805.36,1968,R6,414
I,0525,C658A,4242835.37,4017917.64,1996,TE90,188
I,0518,C638A,4242733.5,4019422.3,1989,R90S,195
P,0079,A227,4235921.65,4026873.92,1983,R6,387
I,0829,J516,4232920.38,4018928.52,1981,R6,218
P,0642,C315,4247907.63,4013845.99,1974,R90N,141
P,0769,C601,4242847.48,4015768.77,1969,R90S,545
I,0735,D813,4241489.81,4017036.52,1985,TE90,239
P,0127,A307A,4235772.1,4021630.74,2000,R6,169
P,0300,A854,4231352.8,4027708.58,1969,R6,387
P,0425,B406A,4240219.91,4020045.15,1992,TE08,179
I,0184,B119,4239104.57,4026211.87,1968,R07,324
P,1134,D588,4240515.18,4017826.04,1968,TE08,119
I,0835,J543,4232946.91,4018234.56,1981,R6,219
I,0032,A144,4233855.29,4025944.89,1984,R6,371
I,0223,B237,4244899.21,4025085.03,1968,R08,230
P,1284,D849,4240656.63,4019169.14,1984,R07,372
I,0652,D505A,4237962.92,4017020.35,1979,R6,242
P,0293,A849,4230794.52,4027866.81,1967,R6,441
P,0554,B809,4239189.69,4028601.59,1984,R07,366
P,0026,A127D,4235486.83,4030337.09,1994,R6,247
I,0506,C606A,4243038.5,4017115.82,1998,R90S,207
P,0556,B812,4240757.49,4027448.59,1984,R07,147
P,0387,B307A,4239386.98,4022142.8,1981,R07,317
I,0026,A133,4234449.69,4031562.19,1980,R6,257
P,0488,B625Z,4238238.24,4021259.99,1990,UT07,304
P,0471,B605A,4236068.15,4021535.07,2005,R6,114
I,0699,D610A,4237076.36,4019848.06,1972,R6,496
P,0866,C720,4243320.84,4021067.33,1978,R08,443
P,0084,A232,4235288.79,4026649.88,1983,R6,384
I,0470,C453A,4243239.15,4015060.33,2005,UF90,116
I,0788,J349,4230844.79,4021252.57,1966,R6,305
P,1316,J145,4231079.26,4023695.66,1965,UT06,597
I,0203,B213,4242918.09,4025074.89,1982,R08,387
P,0615,C216,4247489.98,4016823.18,1979,R90N,432
I,0706,D625,4239554.36,4019332.87,1967,R07,471
P,0342,B124,4239764.49,4026649.47,1973,R07,503
P,1180,D630Z,4238870.06,4018603.61,1998,UF08,198
I,0071,A261,4237056.95,4024214.15,1968,R6,258
I,0561,C807,4243460.15,4020074.07,1969,R90N,224
P,1294,J114,4230109.74,4024398.97,1981,R6,120
I,0552,C766,4244358.45,4023204.94,1983,R08,299
P,0907,C809A,4243230.68,4022170.37,1981,R08,232
P,0546,B763,4238639.26,4028840.37,1983,R07,377
P,0102,A256,4234594.1,4024809.5,1967,R6,577
I,0271,B412A,4240995.6,4019748.42,1990,R08,265
P,0370,B230,4240404.16,4023268.09,1967,R07,307
I,0206,B216,4241821.14,4023574.52,1990,R08,229
P,0041,A146,4233961.69,4026367.04,1968,R6,375
P,0847,C702,4242692.73,4021030.68,1986,R08,352
P,0340,B122A,4240608.4,4026344.05,1993,R07,263
I,0553,C767,4245485.79,4019984.3,1996,R90N,210
P,0282,A815,4232234.11,4031764.14,1984,R6,376
P,0707,C432,4245192.12,4016399.99,1974,R90N,304
P,0236,A668,4232639.77,4024583.48,1967,R6,311
I,0739,D821,4241520.85,4017947.45,1995,TE90,244
I,0569,C812B,4245736.26,4018941.26,1992,R90N,261
I,0182,B116B,4239824.77,4026221.51,1981,R07,237
I,0579,C821A,4244608.81,4022488.8,2002,R90N,157
P,0146,A355A,4235342.02,4021317.35,1985,R6,209
P,0223,A635,4231192.18,4023741.72,1994,R6,247
I,0585,C842B,4243443.49,4019334.31,2006,R90N,107
I,0697,D606A,4235579.55,4020125.84,1972,R6,328
I,0453,C419B,4244847.4,4013231.75,1983,R90S,278
P,0646,C317Z,4244605.59,4016850.12,1990,UF90,246
P,1018,D409A,4240373.1,4016758.76,2000,UF90,182
P,0184,A408A,4235994.78,4022627.21,1990,UT06,269
I,0380,C140A,4247004.64,4016680.18,1984,R90N,331
P,0228,A654,4231153.88,4024641.27,1997,R6,214
P,0673,C354,4249320.02,4013004.15,2006,BL,106
P,1183,D634,4239073.27,4018660.91,1969,R07,467
I,0095,A369A,4234657.33,4021310.18,2000,UT06,174
P,1377,J325A,4231804.6,4023350.56,1991,R6,282
P,1322,J154A,4231060.33,4024560.23,1980,R6,233
P,0418,B401,4241287.37,4020186.43,1967,R08,574
I,0065,A240,4236361.95,4024994.94,1969,R6,136
P,0138,A316,4233654.52,4024221.76,1967,R6,578
I,0526,C659,4245211.9,4017561.1,1992,R90N,270
I,0235,B313B,4241368.12,4021996.98,1990,R08,231
P,0058,A202,4235627.15,4027124.51,1968,R6,543
P,1274,D839,4242293.24,4018042.92,1984,R90S,365
I,0775,J310A,4233188.58,4021543.61,1971,R6,260
P,1052,D449,4240971.79,4014583.41,1981,R07,211
I,0588,D101A,4239545.39,4019069.03,1982,R07,370
P,0862,C714,4243799.15,4022781.98,1986,R08,297
P,1338,J175,4230562.17,4022667.85,1965,R6,120
P,0381,B302,4240637.22,4022513.7,1967,R08,329
P,0832,C657A,4243178.68,4018508.93,1996,UF90,227
I,0714,D638,4241823.82,4019582.02,1981,R08,394
P,0198,A534,4233354.04,4024150.38,1998,R6,205
I,0078,A306B,4235014.79,4023561.48,2003,UT06,146
P,0663,C331,4248456.01,4014047.85,1969,R90N,247
P,0951,D115,4240081.06,4018484.14,1967,R07,330
P,1105,D548,4238220.47,4018426.86,1982,R07,203
P,1304,J127,4230145.56,4024175.26,1966,UT06,561
P,1386,J332A,4231386.95,4022277.68,1970,R6,316
P,0822,C649,4243703.94,4017907.62,1994,R90N,252
P,1434,J464,4231449.38,4019523.37,1965,R6,152
P,0389,B310,4242480.44,4022007.26,1967,R08,464
I,0031,A143,4236225.7,4031921.25,1969,R6,193
I,0327,B769A,4239071.47,4029611.63,1998,R07,208
P,1275,D840,4242344.19,4017972.06,1984,R08,369
P,0215,A557,4232353.81,4023298.39,1992,UT06,169
I,0602,D403,4241533.03,4016561.04,1968,R90S,217
I,0197,B204,4242218.46,4024338.03,1993,R08,263
P,0335,B120,4238795.73,4027685.75,1969,R07,555
I,0740,D828,4241719.52,4017662.82,1985,R08,161
P,0031,A134,4235093.89,4031172.92,1982,R6,398
I,0537,C731A,4244371.56,4018833.05,1989,R90N,283
I,0745,D853,4242222.02,4018630.83,1995,UF90,242
I,0458,C431,4243134.3,4013903.81,1985,R90S,245
P,0017,A119A,4233172,4026955.77,2000,R6,174
I,0811,J435,4234940.02,4020681.64,1966,R6,260
P,0682,C406,4246817.57,4014477.04,1969,R90N,512
P,0141,A318,4235392.67,4024117.8,1984,R6,368
I,0814,J440,4233378.38,4020254.28,1967,UT06,141
P,1116,D576,4238319.78,4018249.29,1968,R07,565
I,0457,C427,4246545.04,4014846.97,1974,R90N,194
I,0796,J418,4235196.67,4020543.65,1984,R6,363
P,0481,B614,4237824.57,4022325.95,1986,R07,340
I,0802,J425A,4230934.25,4021153.41,1990,R6,216
P,0301,A854A,4231257.66,4027587.08,2001,R6,169
P,0728,C513,4244845.87,4016434.15,1968,UF90,208
P,0674,C356,4246566.37,4016651.57,2006,R90N,109
P,1401,J346,4232127.6,4021676.19,1966,UT06,213
I,0833,J541A,4233911.12,4017943.95,1971,R6,286
P,0443,B438B,4239980.9,4017765.82,1997,TE08,108
P,0530,B724,4235496.82,4021754.88,2004,UT06,127
P,0605,C208A,4249017.92,4015899.98,1985,R90N,347
I,0054,A225,4236313.65,4027619.93,1982,R6,391
P,0888,C758,4244167.01,4021083.75,1983,R90N,377
I,0064,A239A,4237301.45,4029765.63,1993,R6,259
P,0517,B706,4237630.31,4023265.59,1972,R07,327
P,0894,C764A,4242145.9,4018383.59,2006,R90S,102
I,0536,C721A,4241911.29,4019285.77,1996,TE90,228
I,0741,D835,4241962.19,4018354.99,1991,TE90,241
P,1229,D750,4240201.21,4018922.71,1984,TE08,236
P,1172,D623,4238892.48,4019241.41,1969,UF08,141
P,0864,C717,4242948.25,4020385.79,1982,R08,375
P,0499,B632A,4236302.22,4022280.28,1992,R6,270
P,1391,J337,4232628.45,4022144.9,1981,R6,242
I,0695,D604,4236185.71,4020086.62,1967,R6,498
P,0357,B205,4240648.59,4025079.45,1982,R07,164
P,1063,D496A,4239975.54,4016004.96,1999,R07,191
P,0494,B628A,4235384.22,4021375.83,1997,R6,153
I,0151,A850,4231953.16,4026237.49,1967,R6,134
P,1169,D619A,4239760.69,4019686.97,2000,UF08,102
I,0747,D855,4240781.85,4020183.97,1993,TE08,165
I,0218,B231,4242250.31,4028202.6,1968,R07,160
P,0608,C211,4244594.31,4018229.37,1974,R90N,469
I,0736,D814,4241046.95,4017977.09,2004,R08,132
I,0782,J335Z,4231305.35,4021393.02,1998,R6,202
I,0343,B828A,4237672.19,4026854.46,1977,R07,244
I,0725,D737,4235829.04,4021207.67,1995,R6,240
P,0193,A530B,4235647.35,4022483.92,1997,UT06,220
I,0671,D532,4235983.88,4017455.18,1981,R6,402
P,0883,C744A,4246247.48,4017045.49,2004,R90N,125
P,0126,A306A,4235669.84,4023199.69,1969,R6,406
I,0660,D517,4236261.48,4017452.56,1967,R6,228
I,0698,D607,4236570.88,4020039.71,1967,R6,375
P,0902,C804A,4244687.58,4020049.71,1988,R90N,317
P,0656,C326,4248872.93,4013678.56,1969,UF90,429
P,0889,C759,4242395.91,4020268.98,1993,R08,133
P,0248,A707,4231061.84,4024714.97,1980,T05,265
P,0860,C712,4243120.37,4019102.21,1979,R90S,196
I,0834,J542,4233259.89,4018164.06,1965,R6,330
I,0104,A553,4232447.86,4021444.55,1993,UT06,259
P,0583,C117,4244879.42,4016444.47,1978,R90N,193
I,0522,C647A,4243362.58,4017025.35,2005,TE90,118
I,0563,C807B,4243140.43,4020275.22,1999,R90N,154
I,0549,C760A,4241806.2,4020084.43,2006,TE90,102
P,0241,A703A,4231152.77,4025009.38,1971,R6,429
I,0794,J416Z,4232710.24,4021613.92,1998,R6,201
P,0587,C131,4250731.21,4016633.3,1981,R90N,319
P,1053,D450,4239615.93,4015181.72,1982,R07,395
P,0981,D215,4240809.07,4018412.37,1981,R08,410
I,0477,C514B,4244112.32,4013409.96,1979,R90S,311
P,1403,J348,4233575.42,4021450.77,1980,R6,114
P,0589,C134,4247518.07,4017741.85,1969,R90N,546
I,0729,D754,4240585.98,4019689.59,1985,R08,241
P,1264,D829,4241596.98,4017999.55,1991,TE90,289
P,0188,A412B,4234599.67,4022016.97,1991,R6,266
P,1318,J147,4230401.08,4023993.25,2006,UT06,102
P,0210,A548A,4233673.88,4022575.32,1990,UT06,296
P,1109,D568,4237978.62,4018361.66,1980,R6,413
P,0758,C538,4242490.16,4016567.03,1968,R90S,343
P,1158,D612,4236916.65,4020416.19,1968,R6,150
P,0896,C768,4245941.98,4018157.72,1986,R90N,120
P,0115,A267,4235658.14,4023855.79,1968,R6,564
P,0094,A247,4236924.19,4025998.21,1985,R6,363
P,0412,B337,4240778.56,4020899.81,1976,R08,280
P,1421,J434,4232731.2,4020364.64,1981,R6,408
I,0700,D614,4237231.35,4020233.6,1969,R6,260
I,0356,C103A,4248332.96,4019044.45,1992,R90N,261
P,1397,J342,4232418.96,4023665.52,1995,T05,239
P,1330,J167B,4230712.75,4023015.83,2006,UT06,102
P,1438,J467A,4233565.08,4019956.98,2001,R6,168
I,0212,B225,4242343.62,4027064.96,1968,R07,344
I,0060,A238,4236008.4,4025133.82,1967,R6,143
P,0873,C734,4244911.59,4018556.72,1967,R90N,573
I,0352,B836A,4238601.34,4024223.71,2001,R07,165
I,0248,B322,4242266.43,4021247.92,1982,R08,314
P,1354,J310A,4233188.58,4021543.61,1971,R6,269
P,0246,A706,4232254.96,4024739.71,1967,R6,327
P,0851,C706,4244306.54,4018418.24,1981,R90N,102
P,0373,B234,4241147.78,4024736.4,1975,R07,478
P,1136,D590,4240743.82,4017769.71,1978,TE08,444
I,0842,J559,4234332.92,4014827.27,1966,R6,164
I,0519,C641,4243090.08,4017704.35,1984,UF90,216
P,0835,C661,4243032.97,4017996.11,1994,TE90,216
I,0358,C110,4248850.45,4018828.36,1983,R90N,131
I,0574,C817,4246806.31,4022906.51,1968,R90N,256
P,0180,A405,4234040.49,4022970.92,1991,R6,287
P,0937,D108,4239458.85,4018804.78,1968,UF08,181
P,0840,C666,4242201.85,4018627.69,2004,R90S,125
I,0382,C141A,4246765.9,4021775.2,1986,R90N,153
P,1258,D824,4241295.42,4018007.17,1991,R08,289
I,0434,C407,4247229.82,4011986.98,1970,R90S,117
P,0297,A852,4231527.79,4026967.79,1968,R6,565
I,0036,A148Z,4233948.18,4025715.07,2003,R6,140
I,0848,X002,4233717.99,4033628.64,1967,R6,192
P,0544,B759,4237604.98,4029139.19,1983,R07,388
I,0730,D756,4239322.19,4020221.36,1984,R07,231
I,0179,B115,4240477.49,4025622.53,1982,R07,361
P,0786,C614A,4243386.57,4017704.57,1968,R90S,559
P,0780,C609,4243208.98,4017325.36,1977,UF90,142
P,0166,A367A,4234717.58,4020912.45,1973,R6,230
P,1472,J552A,4234840.29,4017097.65,1979,R6,404
P,0955,D117A,4243104.49,4021496.14,1999,R08,163
I,0149,A834A,4233563.92,4030607.67,1988,R6,251
I,0450,C418A,4245233.39,4014712.06,2002,UF90,125
I,0825,J465,4235060.85,4020000.41,1966,R6,249
I,0422,C338A,4247498.39,4014532.58,1970,R90N,321
P,1234,D756,4239322.19,4020221.36,1984,R07,140
P,0066,A212,4234916.43,4026060.04,1968,R6,300
P,0495,B629B,4236256.5,4021426.55,1992,R6,269
P,0906,C809,4243293.29,4022285.33,1970,R08,138
I,0500,C546,4244229.98,4017251.4,1985,R90N,364
P,0831,C657,4243013.22,4018510.71,1985,UF90,130
I,0153,A850B,4233856.69,4029471.94,1993,R6,267
P,0957,D119,4241013.73,4018833.72,1967,R07,282
P,0480,B613A,4233593.83,4021142.84,2004,R6,125
P,0881,C740A,4242584.61,4019082.74,2006,R90S,109
I,0702,D617,4239095.51,4019401.2,1968,R07,344
P,0586,C130,4245849.68,4017004.38,1967,UF90,569
P,0478,B612A,4238317.61,4022152.52,1990,R07,301
P,0827,C655,4242861.16,4017960.63,1985,TE90,147
P,0922,C838,4245357.3,4020840.15,1977,R90N,452
P,1247,D813,4241489.81,4017036.52,1985,TE90,114
I,0846,J569,4232932.99,4016125.27,1983,R6,187
I,0325,B768,4238789.2,4026433.11,1985,R07,360
P,1436,J466,4232619.46,4019598.95,1966,R6,560
P,0432,B424,4240843.25,4022947.75,1982,R08,396
I,0830,J519,4235123.98,4017718.66,1966,R6,224
I,0261,B339A,4240358.57,4022075.03,1975,UF08,268
P,0426,B407,4240789.05,4024947.67,1968,R07,295
P,0229,A656,4231756.36,4023938.56,1993,R6,268
P,0775,C604A,4243395.55,4015993.66,2006,UF90,111
I,0024,A130A,4234076.6,4028306.09,1975,R6,318
P,0383,B304,4243439.18,4021344.78,1967,R08,573
I,0657,D512,4237045.79,4017157.38,1968,R6,126
P,0841,C667,4243358.41,4018256.96,1991,R90N,284
I,0684,D581A,4236162.14,4018785.37,1979,R6,258
P,0044,A150,4234442.74,4026905.34,1968,R6,560
P,0081,A228A,4233176.29,4025000.84,1998,R6,205
P,1306,J130,4230594.46,4023841.49,1966,UT06,591
P,0356,B202,4239481.91,4022724.77,1968,R07,514
P,0220,A629,4231634.23,4023374.21,1993,UT06,262
P,0187,A411,4236231.05,4021949.64,1994,UT06,248
P,0935,D106,4242301.68,4018879.03,1968,R08,298
I,0505,C606,4243136.55,4017053.35,1968,R90S,289
P,1164,D616A,4238656.66,4020504.17,1982,R07,390
I,0836,J544,4232537.4,4018247.26,1966,R6,410
P,0897,C769,4245205.28,4022308.39,1983,R90N,169
P,0199,A535,4232616.6,4022371.46,1997,R6,216
I,0120,A673,4231373.4,4024954.22,1993,UT06,260
P,1154,D608A,4236442.1,4020726.34,1980,R6,224
P,0645,C317,4244605.59,4016850.12,1977,UF90,212
P,0182,A407,4235175.68,4021589.51,1984,UT06,344
P,1366,J319A,4233416.92,4022688.57,1967,UT06,399
P,0571,B838,4238834.17,4024767.75,1969,R07,366
P,0932,D104A,4241850.02,4019161.51,2003,UF90,137
P,0329,B114B,4239347.96,4025279.95,1997,R07,209
P,0650,C321,4245518.96,4015928.17,1973,UF90,148
I,0109,A566,4232527.4,4024095.18,1990,UT06,295
I,0103,A543,4230664.88,4022039.44,2003,UT06,137
P,1400,J345,4232767.83,4022782.02,1982,UT06,400
P,1131,D586,4239113.76,4015249.11,1974,R07,492
P,0941,D110,4241774.11,4018489.52,1968,TE90,153
P,1313,J142,4230247.79,4023703.16,1965,UT06,453
P,1008,D403,4241533.03,4016561.04,1968,R90S,346
P,0766,C547A,4245730.21,4017525.22,1998,R90N,207
P,0232,A664A,4232858.85,4023898.72,1971,R6,526
P,0624,C227,4249110.68,4016712.32,1989,R90N,307
P,0479,B613,4235749.02,4021095.96,1983,R6,254
I,0034,A148,4233948.18,4025715.07,1968,UT06,125
I,0308,B703,4237613.31,4022592.67,1967,R07,216
P,0708,C432A,4244796.79,4016201.68,1999,UF90,181
P,1298,J118Z,4230779.48,4025154.74,1978,T05,446
P,0991,D307,4241684.75,4016940.22,1973,R90S,410
I,0045,A171A,4235707.07,4027578.28,1983,R6,379
P,0613,C214,4248341.49,4016768.58,1975,R90N,177
P,1423,J437,4233747.09,4020239.99,1966,R6,288
P,0147,A355B,4236119.78,4020271.9,2003,R6,145
P,0664,C332A,4249905.76,4012636.4,2005,BU,119
P,0227,A650,4232288.79,4024310.53,2000,R6,178
P,0386,B307,4239500.3,4021975.86,1968,R07,163
P,0828,C655A,4245587.22,4015627.96,1997,R90N,209
P,0354,B140,4241518.96,4026116.79,1968,R07,295
I,0622,D423,4239579.38,4016664.37,1968,R07,521
I,0347,B830A,4237610.03,4023900.75,1990,R07,238
P,1297,J118A,4230779.48,4025154.74,1967,R6,124
P,0130,A310,4235340.45,4023120.36,1968,R6,275
P,0350,B136,4240386.4,4024913.19,1969,R07,514
I,0267,B408A,4239633.18,4020305.39,2005,UF08,113
P,0436,B430,4238379.36,4020336.7,1978,UT07,437
I,0762,J140Z,4231092.6,4022888.32,1993,R6,260
P,1295,J115,4230572.07,4026117.57,1966,R6,441
P,0591,C137,4249165.53,4015991.6,1968,R90N,404
P,0306,A863,4233971.73,4030912.64,1986,R6,351
I,0062,A238B,4236041.5,4025323.03,1996,R6,222
P,1263,D828,4241719.52,4017662.82,1985,R08,198
P,1214,D735,4236903.24,4022738.33,2002,R6,157
P,0201,A537,4229983.28,4024185.82,2001,UT06,171
P,1481,J562,4232717.83,4017462.57,1966,R6,164
P,0207,A544,4232725.96,4022024.89,1993,UT06,236
P,1428,J445A,4232482.92,4020322.22,1971,R6,498
P,0331,B118,4239851.59,4024612.74,1969,R07,132
P,0123,A303,4237412.69,4024153.44,1966,R6,300
I,0560,C806A,4242927.06,4020193.34,1993,TE90,257
I,0226,B302,4240637.22,4022513.7,1967,R08,180
P,0532,B734,4237817.4,4023053.35,1983,R07,377
P,1212,D733,4236956.46,4023687.84,2002,R6,154
P,0872,C733A,4241655.77,4020109.76,1993,R08,167
I,0190,B129,4240853.98,4025623.86,1968,R07,371
P,0535,B741,4239585.09,4024329.24,2004,R07,125
P,0846,C701,4242498.53,4018522.45,1988,TE90,319
P,0015,A117A,4233324.07,4027399.53,2006,R6,108
P,0575,C104,4246172.86,4019864.19,1977,R90N,451
P,1176,D627,4240101.81,4019544.24,1968,R07,403
P,0971,D208,4241172.08,4018260.85,1975,R08,477
P,0572,B839,4237694.64,4026228.34,1969,R07,291
P,0545,B761,4237996.02,4029141.49,1984,R07,373
P,1027,D420A,4242474.46,4017530.93,2003,R90S,137
P,0604,C208,4249036.69,4015701.45,1976,R90N,107
P,0245,A705,4230953.95,4024948.36,1978,T05,426
P,0272,A770,4230831.86,4030348.32,1988,R6,320
I,0268,B411,4241110.85,4020309.79,1977,TE08,172
P,1290,J110,4230681.26,4024818.42,1982,R6,393
I,0839,J550,4234702.53,4015690.71,1984,R6,179
P,0816,C644,4243897.44,4017952.11,1984,R90N,332
P,0635,C246,4248336.59,4017462.81,1984,R90N,339
I,0687,D589,4241515.63,4015788.71,1975,UF90,481
I,0532,C713A,4243194.47,4021226.5,1996,R08,227
P,0566,B832,4239608.5,4025193.45,1967,R07,570
P,1122,D581A,4236162.14,4018785.37,1979,R6,173
I,0737,D815,4240796.85,4016118.5,1985,TE90,152
P,1459,J524,4233656.88,4019203.39,1983,R6,382
P,1221,D743,4236970.59,4022571.04,1995,R6,240
I,0069,A242,4237348.56,4024706.32,1970,R6,475
P,0920,C826,4245756.21,4020355.43,1981,R90N,409
I,0547,C744,4244968.73,4019261.87,1985,R90N,225
P,0560,B818,4240021.32,4022942.81,1983,R07,350
I,0280,B435A,4238920.34,4019904.57,1998,UT07,208
P,0064,A208A,4237137.19,4029141.61,1983,R6,377
P,0042,A147,4235298.51,4028633.98,1968,R6,557
P,0913,C818,4244825.84,4021005.65,1969,R90N,548
P,1283,D848,4240921.33,4019309.95,1991,R08,284
P,0744,C527,4242981.83,4015344.49,1973,R90S,278
P,1369,J321,4230566.72,4022631.93,1966,UT06,427
I,0523,C650,4243071.77,4017445.17,1994,R90S,197
